{
  "GEO": [],
  "source": ["MSigDb"],
  "targetDbName": ["KEGG"],
  "targetGeneSet": ["path:hsa04110"],
  "annotationDbName": [],
  "samples": [],
  "phenotypes": [],
  "block": [],
  "isLog2": [false]
}
