prefix	tool	experimentName	targetGeneSet	pVal	adjPVal	absRank	nTargets	rankPerc	absRank_0.01	nTargets_0.01	rankPerc_0.01	absRank_0.05	nTargets_0.05	rankPerc_0.05	absRank_0.1	nTargets_0.1	rankPerc_0.1
MSigDB_chris_UPandDN-MGclus_FC0	CrossTalkB_cl	MSIGDB-chris-UPandDN__AGUIRRE_PANCREATIC_CANCER_COPY_NUMBER	path:hsa05212	0.000327178	0.0010640250099963	208	288	72.2222222222222	208	227	91.6299559471366	208	252	82.5396825396825	208	257	80.9338521400778
MSigDB_chris_UPandDN-MGclus_FC0	CrossTalkB	MSIGDB-chris-UPandDN__AGUIRRE_PANCREATIC_CANCER_COPY_NUMBER	path:hsa05212	0.24014	0.563330153558553	90	288	31.25	NA	13	NA	NA	27	NA	NA	34	NA
MSigDB_chris_UPandDN-MGclus_FC0	Ease_cl	MSIGDB-chris-UPandDN__AGUIRRE_PANCREATIC_CANCER_COPY_NUMBER	path:hsa05212	0.141422448454946	1	59	288	20.4861111111111	NA	0	NA	NA	3	NA	NA	8	NA
MSigDB_chris_UPandDN-MGclus_FC0	Ease	MSIGDB-chris-UPandDN__AGUIRRE_PANCREATIC_CANCER_COPY_NUMBER	path:hsa05212	0.810720321836423	1	129	288	44.7916666666667	NA	1	NA	NA	1	NA	NA	1	NA
MSigDB_chris_UPandDN-MGclus_FC0	Fisher_cl	MSIGDB-chris-UPandDN__AGUIRRE_PANCREATIC_CANCER_COPY_NUMBER	path:hsa05212	0.0101706227708014	0.0901501013306958	59	288	20.4861111111111	NA	22	NA	NA	43	NA	59	65	90.7692307692308
MSigDB_chris_UPandDN-MGclus_FC0	Fisher	MSIGDB-chris-UPandDN__AGUIRRE_PANCREATIC_CANCER_COPY_NUMBER	path:hsa05212	0.491188666422063	1	134	288	46.5277777777778	NA	1	NA	NA	4	NA	NA	4	NA
MSigDB_chris_UPandDN-MGclus_FC0	CrossTalkB_cl	MSIGDB-chris-UPandDN__ALCALA_APOPTOSIS	path:hsa04210	6.11998e-07	2.97251337130218e-06	31	288	10.7638888888889	31	90	34.4444444444444	31	118	26.271186440678	31	140	22.1428571428571
MSigDB_chris_UPandDN-MGclus_FC0	CrossTalkB	MSIGDB-chris-UPandDN__ALCALA_APOPTOSIS	path:hsa04210	1.47058e-05	0.000121234863632098	36	288	12.5	36	61	59.0163934426229	36	77	46.7532467532467	36	93	38.7096774193548
MSigDB_chris_UPandDN-MGclus_FC0	Ease_cl	MSIGDB-chris-UPandDN__ALCALA_APOPTOSIS	path:hsa04210	0.170976774103521	1	35	288	12.1527777777778	NA	0	NA	NA	1	NA	NA	4	NA
MSigDB_chris_UPandDN-MGclus_FC0	Ease	MSIGDB-chris-UPandDN__ALCALA_APOPTOSIS	path:hsa04210	0.278574413930885	1	52	288	18.0555555555556	NA	0	NA	NA	2	NA	NA	3	NA
MSigDB_chris_UPandDN-MGclus_FC0	Fisher_cl	MSIGDB-chris-UPandDN__ALCALA_APOPTOSIS	path:hsa04210	0.0150703725572766	0.108908393700632	34	288	11.8055555555556	NA	5	NA	NA	15	NA	NA	31	NA
MSigDB_chris_UPandDN-MGclus_FC0	Fisher	MSIGDB-chris-UPandDN__ALCALA_APOPTOSIS	path:hsa04210	0.0421232909692095	0.45150822193232	49	288	17.0138888888889	NA	4	NA	NA	9	NA	NA	15	NA
MSigDB_chris_UPandDN-MGclus_FC0	CrossTalkB_cl	MSIGDB-chris-UPandDN__BARIS_THYROID_CANCER	path:hsa05216	4.02573e-06	1.74929568736087e-05	97	288	33.6805555555556	97	176	55.1136363636364	97	202	48.019801980198	97	209	46.4114832535885
MSigDB_chris_UPandDN-MGclus_FC0	CrossTalkB	MSIGDB-chris-UPandDN__BARIS_THYROID_CANCER	path:hsa05216	0.0182916	0.0700865493565976	79	288	27.4305555555556	NA	45	NA	NA	72	NA	79	88	89.7727272727273
MSigDB_chris_UPandDN-MGclus_FC0	Ease_cl	MSIGDB-chris-UPandDN__BARIS_THYROID_CANCER	path:hsa05216	1	1	NA	288	NA	NA	6	NA	NA	6	NA	NA	7	NA
MSigDB_chris_UPandDN-MGclus_FC0	Ease	MSIGDB-chris-UPandDN__BARIS_THYROID_CANCER	path:hsa05216	1	1	NA	288	NA	NA	10	NA	NA	15	NA	NA	25	NA
MSigDB_chris_UPandDN-MGclus_FC0	Fisher_cl	MSIGDB-chris-UPandDN__BARIS_THYROID_CANCER	path:hsa05216	0.0199907139473011	0.124010191605292	77	288	26.7361111111111	NA	17	NA	NA	37	NA	NA	61	NA
MSigDB_chris_UPandDN-MGclus_FC0	Fisher	MSIGDB-chris-UPandDN__BARIS_THYROID_CANCER	path:hsa05216	0.0881192996388235	0.665842205019718	84	288	29.1666666666667	NA	25	NA	NA	31	NA	NA	36	NA
MSigDB_chris_UPandDN-MGclus_FC0	CrossTalkB_cl	MSIGDB-chris-UPandDN__BEIER_GLIOMA_STEM_CELL	path:hsa05214	1.11688e-06	5.21336467587673e-06	42	288	14.5833333333333	42	126	33.3333333333333	42	168	25	42	183	22.9508196721311
MSigDB_chris_UPandDN-MGclus_FC0	CrossTalkB	MSIGDB-chris-UPandDN__BEIER_GLIOMA_STEM_CELL	path:hsa05214	0.00569028	0.0259991779037711	53	288	18.4027777777778	NA	40	NA	53	61	86.8852459016393	53	77	68.8311688311688
MSigDB_chris_UPandDN-MGclus_FC0	Ease_cl	MSIGDB-chris-UPandDN__BEIER_GLIOMA_STEM_CELL	path:hsa05214	1	1	NA	288	NA	NA	0	NA	NA	0	NA	NA	0	NA
MSigDB_chris_UPandDN-MGclus_FC0	Ease	MSIGDB-chris-UPandDN__BEIER_GLIOMA_STEM_CELL	path:hsa05214	0.263881151815418	1	19	288	6.59722222222222	NA	0	NA	NA	0	NA	NA	0	NA
MSigDB_chris_UPandDN-MGclus_FC0	Fisher_cl	MSIGDB-chris-UPandDN__BEIER_GLIOMA_STEM_CELL	path:hsa05214	0.00564430967698037	0.0662292282075015	11	288	3.81944444444444	NA	0	NA	NA	3	NA	11	49	22.4489795918367
MSigDB_chris_UPandDN-MGclus_FC0	Fisher	MSIGDB-chris-UPandDN__BEIER_GLIOMA_STEM_CELL	path:hsa05214	0.0375120299363327	0.424074222600703	17	288	5.90277777777778	NA	0	NA	NA	1	NA	NA	1	NA
MSigDB_chris_UPandDN-MGclus_FC0	CrossTalkB_cl	MSIGDB-chris-UPandDN__BENNETT_SYSTEMIC_LUPUS_ERYTHEMATOSUS	path:hsa05322	0.00735164	0.0182549274233216	78	288	27.0833333333333	NA	67	NA	78	85	91.7647058823529	78	91	85.7142857142857
MSigDB_chris_UPandDN-MGclus_FC0	CrossTalkB	MSIGDB-chris-UPandDN__BENNETT_SYSTEMIC_LUPUS_ERYTHEMATOSUS	path:hsa05322	0.00108775	0.006113113243762	52	288	18.0555555555556	52	53	98.1132075471698	52	69	75.3623188405797	52	75	69.3333333333333
MSigDB_chris_UPandDN-MGclus_FC0	Ease_cl	MSIGDB-chris-UPandDN__BENNETT_SYSTEMIC_LUPUS_ERYTHEMATOSUS	path:hsa05322	1	1	NA	288	NA	NA	0	NA	NA	1	NA	NA	2	NA
MSigDB_chris_UPandDN-MGclus_FC0	Ease	MSIGDB-chris-UPandDN__BENNETT_SYSTEMIC_LUPUS_ERYTHEMATOSUS	path:hsa05322	1	1	NA	288	NA	NA	2	NA	NA	4	NA	NA	4	NA
MSigDB_chris_UPandDN-MGclus_FC0	Fisher_cl	MSIGDB-chris-UPandDN__BENNETT_SYSTEMIC_LUPUS_ERYTHEMATOSUS	path:hsa05322	1	1	NA	288	NA	NA	2	NA	NA	6	NA	NA	6	NA
MSigDB_chris_UPandDN-MGclus_FC0	Fisher	MSIGDB-chris-UPandDN__BENNETT_SYSTEMIC_LUPUS_ERYTHEMATOSUS	path:hsa05322	1	1	NA	288	NA	NA	4	NA	NA	4	NA	NA	5	NA
MSigDB_chris_UPandDN-MGclus_FC0	CrossTalkB_cl	MSIGDB-chris-UPandDN__BOHN_PRIMARY_IMMUNODEFICIENCY_SYNDROM	path:hsa05340	7.70162e-07	3.67868570309951e-06	41	288	14.2361111111111	41	111	36.9369369369369	41	152	26.9736842105263	41	175	23.4285714285714
MSigDB_chris_UPandDN-MGclus_FC0	CrossTalkB	MSIGDB-chris-UPandDN__BOHN_PRIMARY_IMMUNODEFICIENCY_SYNDROM	path:hsa05340	0.272347	0.618535742535867	139	288	48.2638888888889	NA	31	NA	NA	55	NA	NA	67	NA
MSigDB_chris_UPandDN-MGclus_FC0	Ease_cl	MSIGDB-chris-UPandDN__BOHN_PRIMARY_IMMUNODEFICIENCY_SYNDROM	path:hsa05340	1	1	NA	288	NA	NA	0	NA	NA	0	NA	NA	0	NA
MSigDB_chris_UPandDN-MGclus_FC0	Ease	MSIGDB-chris-UPandDN__BOHN_PRIMARY_IMMUNODEFICIENCY_SYNDROM	path:hsa05340	1	1	NA	288	NA	NA	0	NA	NA	0	NA	NA	0	NA
MSigDB_chris_UPandDN-MGclus_FC0	Fisher_cl	MSIGDB-chris-UPandDN__BOHN_PRIMARY_IMMUNODEFICIENCY_SYNDROM	path:hsa05340	1	1	NA	288	NA	NA	2	NA	NA	8	NA	NA	28	NA
MSigDB_chris_UPandDN-MGclus_FC0	Fisher	MSIGDB-chris-UPandDN__BOHN_PRIMARY_IMMUNODEFICIENCY_SYNDROM	path:hsa05340	1	1	NA	288	NA	NA	0	NA	NA	0	NA	NA	1	NA
MSigDB_chris_UPandDN-MGclus_FC0	CrossTalkB_cl	MSIGDB-chris-UPandDN__CONCANNON_APOPTOSIS_BY_EPOXOMICIN	path:hsa04210	2.44034e-14	2.55038031647829e-13	73	288	25.3472222222222	73	232	31.4655172413793	73	255	28.6274509803922	73	265	27.5471698113208
MSigDB_chris_UPandDN-MGclus_FC0	CrossTalkB	MSIGDB-chris-UPandDN__CONCANNON_APOPTOSIS_BY_EPOXOMICIN	path:hsa04210	0.00599795	0.0271984829109677	92	288	31.9444444444444	NA	78	NA	92	106	86.7924528301887	92	115	80
MSigDB_chris_UPandDN-MGclus_FC0	Ease_cl	MSIGDB-chris-UPandDN__CONCANNON_APOPTOSIS_BY_EPOXOMICIN	path:hsa04210	0.21047674867464	1	69	288	23.9583333333333	NA	6	NA	NA	9	NA	NA	10	NA
MSigDB_chris_UPandDN-MGclus_FC0	Ease	MSIGDB-chris-UPandDN__CONCANNON_APOPTOSIS_BY_EPOXOMICIN	path:hsa04210	0.215543039267915	1	64	288	22.2222222222222	NA	4	NA	NA	9	NA	NA	10	NA
MSigDB_chris_UPandDN-MGclus_FC0	Fisher_cl	MSIGDB-chris-UPandDN__CONCANNON_APOPTOSIS_BY_EPOXOMICIN	path:hsa04210	0.0232880135231962	0.133615464360977	101	288	35.0694444444444	NA	21	NA	NA	48	NA	NA	73	NA
MSigDB_chris_UPandDN-MGclus_FC0	Fisher	MSIGDB-chris-UPandDN__CONCANNON_APOPTOSIS_BY_EPOXOMICIN	path:hsa04210	0.0766783190495186	0.628597624387281	69	288	23.9583333333333	NA	8	NA	NA	18	NA	NA	23	NA
MSigDB_chris_UPandDN-MGclus_FC0	CrossTalkB_cl	MSIGDB-chris-UPandDN__DELYS_THYROID_CANCER	path:hsa05216	3.24394e-07	1.63013552402746e-06	195	288	67.7083333333333	195	246	79.2682926829268	195	261	74.7126436781609	195	269	72.4907063197026
MSigDB_chris_UPandDN-MGclus_FC0	CrossTalkB	MSIGDB-chris-UPandDN__DELYS_THYROID_CANCER	path:hsa05216	3.63511e-10	5.58719269291338e-09	140	288	48.6111111111111	140	200	70	140	210	66.6666666666667	140	215	65.1162790697674
MSigDB_chris_UPandDN-MGclus_FC0	Ease_cl	MSIGDB-chris-UPandDN__DELYS_THYROID_CANCER	path:hsa05216	1	1	NA	288	NA	NA	13	NA	NA	27	NA	NA	38	NA
MSigDB_chris_UPandDN-MGclus_FC0	Ease	MSIGDB-chris-UPandDN__DELYS_THYROID_CANCER	path:hsa05216	0.180771975227074	1	115	288	39.9305555555556	NA	21	NA	NA	31	NA	NA	38	NA
MSigDB_chris_UPandDN-MGclus_FC0	Fisher_cl	MSIGDB-chris-UPandDN__DELYS_THYROID_CANCER	path:hsa05216	0.0100440762253118	0.0892987505699786	145	288	50.3472222222222	NA	77	NA	NA	112	NA	145	151	96.0264900662252
MSigDB_chris_UPandDN-MGclus_FC0	Fisher	MSIGDB-chris-UPandDN__DELYS_THYROID_CANCER	path:hsa05216	0.0413695448452972	0.446425162065222	105	288	36.4583333333333	NA	32	NA	NA	47	NA	NA	57	NA
MSigDB_chris_UPandDN-MGclus_FC0	CrossTalkB_cl	MSIGDB-chris-UPandDN__DUTTA_APOPTOSIS_VIA_NFKB	path:hsa04210	2.4241e-70	4.21649394059406e-68	4	288	1.38888888888889	4	113	3.53982300884956	4	141	2.83687943262411	4	157	2.54777070063694
MSigDB_chris_UPandDN-MGclus_FC0	CrossTalkB	MSIGDB-chris-UPandDN__DUTTA_APOPTOSIS_VIA_NFKB	path:hsa04210	1.35258e-82	6.25319090526316e-80	1	288	0.347222222222222	1	82	1.21951219512195	1	97	1.03092783505155	1	104	0.961538461538462
MSigDB_chris_UPandDN-MGclus_FC0	Ease_cl	MSIGDB-chris-UPandDN__DUTTA_APOPTOSIS_VIA_NFKB	path:hsa04210	2.6752206568014e-14	9.3996552997374e-11	1	288	0.347222222222222	1	10	10	1	19	5.26315789473684	1	26	3.84615384615385
MSigDB_chris_UPandDN-MGclus_FC0	Ease	MSIGDB-chris-UPandDN__DUTTA_APOPTOSIS_VIA_NFKB	path:hsa04210	3.07928256582213e-29	5.40968361163632e-25	1	288	0.347222222222222	1	21	4.76190476190476	1	26	3.84615384615385	1	28	3.57142857142857
MSigDB_chris_UPandDN-MGclus_FC0	Fisher_cl	MSIGDB-chris-UPandDN__DUTTA_APOPTOSIS_VIA_NFKB	path:hsa04210	8.06644946116117e-17	2.83422768267359e-13	1	288	0.347222222222222	1	40	2.5	1	48	2.08333333333333	1	52	1.92307692307692
MSigDB_chris_UPandDN-MGclus_FC0	Fisher	MSIGDB-chris-UPandDN__DUTTA_APOPTOSIS_VIA_NFKB	path:hsa04210	9.5436782784753e-32	1.67663339996254e-27	1	288	0.347222222222222	1	32	3.125	1	39	2.56410256410256	1	45	2.22222222222222
MSigDB_chris_UPandDN-MGclus_FC0	CrossTalkB_cl	MSIGDB-chris-UPandDN__EGUCHI_CELL_CYCLE_RB1_TARGETS	path:hsa04110	1.91547e-127	9.3474936e-125	1	288	0.347222222222222	1	25	4	1	33	3.03030303030303	1	33	3.03030303030303
MSigDB_chris_UPandDN-MGclus_FC0	CrossTalkB	MSIGDB-chris-UPandDN__EGUCHI_CELL_CYCLE_RB1_TARGETS	path:hsa04110	1.91547e-127	2.58853668923077e-124	1	288	0.347222222222222	1	23	4.34782608695652	1	32	3.125	1	33	3.03030303030303
MSigDB_chris_UPandDN-MGclus_FC0	Ease_cl	MSIGDB-chris-UPandDN__EGUCHI_CELL_CYCLE_RB1_TARGETS	path:hsa04110	2.52830495105397e-16	1.1104315345029e-12	1	288	0.347222222222222	1	2	50	1	2	50	1	2	50
MSigDB_chris_UPandDN-MGclus_FC0	Ease	MSIGDB-chris-UPandDN__EGUCHI_CELL_CYCLE_RB1_TARGETS	path:hsa04110	2.52830495105397e-16	5.55215767251452e-13	1	288	0.347222222222222	1	2	50	1	2	50	1	2	50
MSigDB_chris_UPandDN-MGclus_FC0	Fisher_cl	MSIGDB-chris-UPandDN__EGUCHI_CELL_CYCLE_RB1_TARGETS	path:hsa04110	1.27029381167516e-18	5.5791304208773e-15	1	288	0.347222222222222	1	4	25	1	4	25	1	7	14.2857142857143
MSigDB_chris_UPandDN-MGclus_FC0	Fisher	MSIGDB-chris-UPandDN__EGUCHI_CELL_CYCLE_RB1_TARGETS	path:hsa04110	1.27029381167516e-18	3.1880745262156e-15	1	288	0.347222222222222	1	4	25	1	4	25	1	4	25
MSigDB_chris_UPandDN-MGclus_FC0	CrossTalkB_cl	MSIGDB-chris-UPandDN__GEORGES_CELL_CYCLE_MIR192_TARGETS	path:hsa04110	1.26875e-58	1.44736363636364e-56	1	288	0.347222222222222	1	47	2.12765957446809	1	51	1.96078431372549	1	54	1.85185185185185
MSigDB_chris_UPandDN-MGclus_FC0	CrossTalkB	MSIGDB-chris-UPandDN__GEORGES_CELL_CYCLE_MIR192_TARGETS	path:hsa04110	2.58335e-104	1.8910122e-101	1	288	0.347222222222222	1	41	2.4390243902439	1	45	2.22222222222222	1	48	2.08333333333333
MSigDB_chris_UPandDN-MGclus_FC0	Ease_cl	MSIGDB-chris-UPandDN__GEORGES_CELL_CYCLE_MIR192_TARGETS	path:hsa04110	0.000558292272814143	0.0430178888105213	1	288	0.347222222222222	NA	0	NA	1	1	100	1	1	100
MSigDB_chris_UPandDN-MGclus_FC0	Ease	MSIGDB-chris-UPandDN__GEORGES_CELL_CYCLE_MIR192_TARGETS	path:hsa04110	7.75461468817286e-07	0.000194618672631173	1	288	0.347222222222222	1	1	100	1	1	100	1	2	50
MSigDB_chris_UPandDN-MGclus_FC0	Fisher_cl	MSIGDB-chris-UPandDN__GEORGES_CELL_CYCLE_MIR192_TARGETS	path:hsa04110	1.97856044071101e-05	0.00110698566313411	1	288	0.347222222222222	1	1	100	1	6	16.6666666666667	1	9	11.1111111111111
MSigDB_chris_UPandDN-MGclus_FC0	Fisher	MSIGDB-chris-UPandDN__GEORGES_CELL_CYCLE_MIR192_TARGETS	path:hsa04110	3.01744522612244e-08	8.2828871457061e-06	1	288	0.347222222222222	1	2	50	1	4	25	1	6	16.6666666666667
MSigDB_chris_UPandDN-MGclus_FC0	CrossTalkB_cl	MSIGDB-chris-UPandDN__GRUETZMANN_PANCREATIC_CANCER	path:hsa05212	2.69222e-15	3.0573316716225e-14	121	288	42.0138888888889	121	265	45.6603773584906	121	274	44.1605839416058	121	275	44
MSigDB_chris_UPandDN-MGclus_FC0	CrossTalkB	MSIGDB-chris-UPandDN__GRUETZMANN_PANCREATIC_CANCER	path:hsa05212	2.15084e-22	7.60280827364185e-21	61	288	21.1805555555556	61	202	30.1980198019802	61	212	28.7735849056604	61	216	28.2407407407407
MSigDB_chris_UPandDN-MGclus_FC0	Ease_cl	MSIGDB-chris-UPandDN__GRUETZMANN_PANCREATIC_CANCER	path:hsa05212	0.00380521087992297	0.170014717627406	35	288	12.1527777777778	NA	7	NA	NA	19	NA	NA	28	NA
MSigDB_chris_UPandDN-MGclus_FC0	Ease	MSIGDB-chris-UPandDN__GRUETZMANN_PANCREATIC_CANCER	path:hsa05212	0.000909164579505376	0.0515232365572595	34	288	11.8055555555556	NA	14	NA	NA	33	NA	34	47	72.3404255319149
MSigDB_chris_UPandDN-MGclus_FC0	Fisher_cl	MSIGDB-chris-UPandDN__GRUETZMANN_PANCREATIC_CANCER	path:hsa05212	0.000105469285687638	0.0038125193641161	32	288	11.1111111111111	32	47	68.0851063829787	32	96	33.3333333333333	32	144	22.2222222222222
MSigDB_chris_UPandDN-MGclus_FC0	Fisher	MSIGDB-chris-UPandDN__GRUETZMANN_PANCREATIC_CANCER	path:hsa05212	0.000156152664159724	0.0078661816742089	33	288	11.4583333333333	33	35	94.2857142857143	33	60	55	33	68	48.5294117647059
MSigDB_chris_UPandDN-MGclus_FC0	CrossTalkB_cl	MSIGDB-chris-UPandDN__HAMAI_APOPTOSIS_VIA_TRAIL	path:hsa04210	7.51683e-05	0.000273294017880795	175	288	60.7638888888889	175	211	82.9383886255924	175	237	73.8396624472574	175	248	70.5645161290323
MSigDB_chris_UPandDN-MGclus_FC0	CrossTalkB	MSIGDB-chris-UPandDN__HAMAI_APOPTOSIS_VIA_TRAIL	path:hsa04210	0.0575337	0.181888076588087	92	288	31.9444444444444	NA	54	NA	NA	75	NA	NA	81	NA
MSigDB_chris_UPandDN-MGclus_FC0	Ease_cl	MSIGDB-chris-UPandDN__HAMAI_APOPTOSIS_VIA_TRAIL	path:hsa04210	1	1	NA	288	NA	NA	1	NA	NA	1	NA	NA	4	NA
MSigDB_chris_UPandDN-MGclus_FC0	Ease	MSIGDB-chris-UPandDN__HAMAI_APOPTOSIS_VIA_TRAIL	path:hsa04210	0.824599630932545	1	162	288	56.25	NA	2	NA	NA	3	NA	NA	4	NA
MSigDB_chris_UPandDN-MGclus_FC0	Fisher_cl	MSIGDB-chris-UPandDN__HAMAI_APOPTOSIS_VIA_TRAIL	path:hsa04210	0.0511084771545246	0.212112857701556	154	288	53.4722222222222	NA	19	NA	NA	49	NA	NA	78	NA
MSigDB_chris_UPandDN-MGclus_FC0	Fisher	MSIGDB-chris-UPandDN__HAMAI_APOPTOSIS_VIA_TRAIL	path:hsa04210	0.515588782555413	1	180	288	62.5	NA	4	NA	NA	4	NA	NA	12	NA
MSigDB_chris_UPandDN-MGclus_FC0	CrossTalkB_cl	MSIGDB-chris-UPandDN__HEIDENBLAD_AMPLIFIED_IN_PANCREATIC_CANCER	path:hsa05212	5.54539e-10	3.79219196263137e-09	29	288	10.0694444444444	29	99	29.2929292929293	29	119	24.3697478991597	29	136	21.3235294117647
MSigDB_chris_UPandDN-MGclus_FC0	CrossTalkB	MSIGDB-chris-UPandDN__HEIDENBLAD_AMPLIFIED_IN_PANCREATIC_CANCER	path:hsa05212	0.221732	0.531648393066739	143	288	49.6527777777778	NA	19	NA	NA	36	NA	NA	52	NA
MSigDB_chris_UPandDN-MGclus_FC0	Ease_cl	MSIGDB-chris-UPandDN__HEIDENBLAD_AMPLIFIED_IN_PANCREATIC_CANCER	path:hsa05212	1	1	NA	288	NA	NA	0	NA	NA	0	NA	NA	0	NA
MSigDB_chris_UPandDN-MGclus_FC0	Ease	MSIGDB-chris-UPandDN__HEIDENBLAD_AMPLIFIED_IN_PANCREATIC_CANCER	path:hsa05212	1	1	NA	288	NA	NA	0	NA	NA	0	NA	NA	0	NA
MSigDB_chris_UPandDN-MGclus_FC0	Fisher_cl	MSIGDB-chris-UPandDN__HEIDENBLAD_AMPLIFIED_IN_PANCREATIC_CANCER	path:hsa05212	0.00858438824075425	0.0831031659904403	25	288	8.68055555555556	NA	6	NA	NA	11	NA	25	42	59.5238095238095
MSigDB_chris_UPandDN-MGclus_FC0	Fisher	MSIGDB-chris-UPandDN__HEIDENBLAD_AMPLIFIED_IN_PANCREATIC_CANCER	path:hsa05212	0.0852849046052746	0.65570468451005	38	288	13.1944444444444	NA	0	NA	NA	0	NA	NA	3	NA
MSigDB_chris_UPandDN-MGclus_FC0	CrossTalkB_cl	MSIGDB-chris-UPandDN__HOLLMAN_APOPTOSIS_VIA_CD40	path:hsa04210	5.70682e-24	1.22714092729498e-22	79	288	27.4305555555556	79	251	31.4741035856574	79	266	29.6992481203008	79	271	29.1512915129151
MSigDB_chris_UPandDN-MGclus_FC0	CrossTalkB	MSIGDB-chris-UPandDN__HOLLMAN_APOPTOSIS_VIA_CD40	path:hsa04210	2.63263e-07	2.86555414126394e-06	45	288	15.625	45	110	40.9090909090909	45	138	32.6086956521739	45	154	29.2207792207792
MSigDB_chris_UPandDN-MGclus_FC0	Ease_cl	MSIGDB-chris-UPandDN__HOLLMAN_APOPTOSIS_VIA_CD40	path:hsa04210	0.0511084771545246	0.843866284446135	69	288	23.9583333333333	NA	2	NA	NA	6	NA	NA	13	NA
MSigDB_chris_UPandDN-MGclus_FC0	Ease	MSIGDB-chris-UPandDN__HOLLMAN_APOPTOSIS_VIA_CD40	path:hsa04210	0.0364596851120761	0.821184292370452	20	288	6.94444444444444	NA	0	NA	NA	2	NA	NA	4	NA
MSigDB_chris_UPandDN-MGclus_FC0	Fisher_cl	MSIGDB-chris-UPandDN__HOLLMAN_APOPTOSIS_VIA_CD40	path:hsa04210	0.00122133713854503	0.0214304671678198	66	288	22.9166666666667	NA	32	NA	66	80	82.5	66	107	61.6822429906542
MSigDB_chris_UPandDN-MGclus_FC0	Fisher	MSIGDB-chris-UPandDN__HOLLMAN_APOPTOSIS_VIA_CD40	path:hsa04210	0.0100693328854569	0.192280478404029	19	288	6.59722222222222	NA	4	NA	NA	7	NA	NA	11	NA
MSigDB_chris_UPandDN-MGclus_FC0	CrossTalkB_cl	MSIGDB-chris-UPandDN__HWANG_PROSTATE_CANCER_MARKERS	path:hsa05215	2.45149e-14	2.5605098882283e-13	40	288	13.8888888888889	40	148	27.027027027027	40	174	22.9885057471264	40	191	20.9424083769633
MSigDB_chris_UPandDN-MGclus_FC0	CrossTalkB	MSIGDB-chris-UPandDN__HWANG_PROSTATE_CANCER_MARKERS	path:hsa05215	4.95626e-08	5.92064291502379e-07	44	288	15.2777777777778	44	109	40.3669724770642	44	136	32.3529411764706	44	147	29.9319727891156
MSigDB_chris_UPandDN-MGclus_FC0	Ease_cl	MSIGDB-chris-UPandDN__HWANG_PROSTATE_CANCER_MARKERS	path:hsa05215	1	1	NA	288	NA	NA	1	NA	NA	3	NA	NA	6	NA
MSigDB_chris_UPandDN-MGclus_FC0	Ease	MSIGDB-chris-UPandDN__HWANG_PROSTATE_CANCER_MARKERS	path:hsa05215	1	1	NA	288	NA	NA	0	NA	NA	2	NA	NA	2	NA
MSigDB_chris_UPandDN-MGclus_FC0	Fisher_cl	MSIGDB-chris-UPandDN__HWANG_PROSTATE_CANCER_MARKERS	path:hsa05215	0.0380360624215763	0.175569507257554	31	288	10.7638888888889	NA	13	NA	NA	18	NA	NA	19	NA
MSigDB_chris_UPandDN-MGclus_FC0	Fisher	MSIGDB-chris-UPandDN__HWANG_PROSTATE_CANCER_MARKERS	path:hsa05215	0.106405957120966	0.724550331279508	34	288	11.8055555555556	NA	3	NA	NA	8	NA	NA	12	NA
MSigDB_chris_UPandDN-MGclus_FC0	CrossTalkB_cl	MSIGDB-chris-UPandDN__KAUFFMANN_MELANOMA_RELAPSE	path:hsa05218	0.305595	0.484582810722989	46	288	15.9722222222222	NA	28	NA	NA	30	NA	NA	34	NA
MSigDB_chris_UPandDN-MGclus_FC0	CrossTalkB	MSIGDB-chris-UPandDN__KAUFFMANN_MELANOMA_RELAPSE	path:hsa05218	0.258665	0.594567502813032	41	288	14.2361111111111	NA	25	NA	NA	29	NA	NA	30	NA
MSigDB_chris_UPandDN-MGclus_FC0	Ease_cl	MSIGDB-chris-UPandDN__KAUFFMANN_MELANOMA_RELAPSE	path:hsa05218	1	1	NA	288	NA	NA	6	NA	NA	7	NA	NA	7	NA
MSigDB_chris_UPandDN-MGclus_FC0	Ease	MSIGDB-chris-UPandDN__KAUFFMANN_MELANOMA_RELAPSE	path:hsa05218	1	1	NA	288	NA	NA	7	NA	NA	7	NA	NA	7	NA
MSigDB_chris_UPandDN-MGclus_FC0	Fisher_cl	MSIGDB-chris-UPandDN__KAUFFMANN_MELANOMA_RELAPSE	path:hsa05218	1	1	NA	288	NA	NA	7	NA	NA	7	NA	NA	10	NA
MSigDB_chris_UPandDN-MGclus_FC0	Fisher	MSIGDB-chris-UPandDN__KAUFFMANN_MELANOMA_RELAPSE	path:hsa05218	1	1	NA	288	NA	NA	7	NA	NA	8	NA	NA	8	NA
MSigDB_chris_UPandDN-MGclus_FC0	CrossTalkB_cl	MSIGDB-chris-UPandDN__KONDO_PROSTATE_CANCER_HCP_WITH_H3K27ME3	path:hsa05215	0.00554241	0.0141689550174622	89	288	30.9027777777778	NA	84	NA	89	125	71.2	89	134	66.4179104477612
MSigDB_chris_UPandDN-MGclus_FC0	CrossTalkB	MSIGDB-chris-UPandDN__KONDO_PROSTATE_CANCER_HCP_WITH_H3K27ME3	path:hsa05215	0.000894607	0.00512345982790091	22	288	7.63888888888889	22	25	88	22	42	52.3809523809524	22	53	41.5094339622642
MSigDB_chris_UPandDN-MGclus_FC0	Ease_cl	MSIGDB-chris-UPandDN__KONDO_PROSTATE_CANCER_HCP_WITH_H3K27ME3	path:hsa05215	1	1	NA	288	NA	NA	0	NA	NA	0	NA	NA	0	NA
MSigDB_chris_UPandDN-MGclus_FC0	Ease	MSIGDB-chris-UPandDN__KONDO_PROSTATE_CANCER_HCP_WITH_H3K27ME3	path:hsa05215	1	1	NA	288	NA	NA	0	NA	NA	0	NA	NA	0	NA
MSigDB_chris_UPandDN-MGclus_FC0	Fisher_cl	MSIGDB-chris-UPandDN__KONDO_PROSTATE_CANCER_HCP_WITH_H3K27ME3	path:hsa05215	1	1	NA	288	NA	NA	9	NA	NA	12	NA	NA	14	NA
MSigDB_chris_UPandDN-MGclus_FC0	Fisher	MSIGDB-chris-UPandDN__KONDO_PROSTATE_CANCER_HCP_WITH_H3K27ME3	path:hsa05215	0.313990984880708	1	51	288	17.7083333333333	NA	0	NA	NA	0	NA	NA	2	NA
MSigDB_chris_UPandDN-MGclus_FC0	CrossTalkB_cl	MSIGDB-chris-UPandDN__KONDO_PROSTATE_CANCER_WITH_H3K27ME3	path:hsa05215	0.636754	0.893418598514496	224	288	77.7777777777778	NA	81	NA	NA	106	NA	NA	132	NA
MSigDB_chris_UPandDN-MGclus_FC0	CrossTalkB	MSIGDB-chris-UPandDN__KONDO_PROSTATE_CANCER_WITH_H3K27ME3	path:hsa05215	0.993371	1	209	288	72.5694444444444	NA	21	NA	NA	26	NA	NA	29	NA
MSigDB_chris_UPandDN-MGclus_FC0	Ease_cl	MSIGDB-chris-UPandDN__KONDO_PROSTATE_CANCER_WITH_H3K27ME3	path:hsa05215	1	1	NA	288	NA	NA	1	NA	NA	1	NA	NA	1	NA
MSigDB_chris_UPandDN-MGclus_FC0	Ease	MSIGDB-chris-UPandDN__KONDO_PROSTATE_CANCER_WITH_H3K27ME3	path:hsa05215	1	1	NA	288	NA	NA	1	NA	NA	1	NA	NA	1	NA
MSigDB_chris_UPandDN-MGclus_FC0	Fisher_cl	MSIGDB-chris-UPandDN__KONDO_PROSTATE_CANCER_WITH_H3K27ME3	path:hsa05215	0.0077243244980405	0.0785925964196724	55	288	19.0972222222222	NA	12	NA	NA	24	NA	55	88	62.5
MSigDB_chris_UPandDN-MGclus_FC0	Fisher	MSIGDB-chris-UPandDN__KONDO_PROSTATE_CANCER_WITH_H3K27ME3	path:hsa05215	0.533805347089451	1	126	288	43.75	NA	1	NA	NA	1	NA	NA	3	NA
MSigDB_chris_UPandDN-MGclus_FC0	CrossTalkB_cl	MSIGDB-chris-UPandDN__KUUSELO_PANCREATIC_CANCER_19Q13_AMPLIFICATION	path:hsa05212	0.025487	0.0555447737070569	55	288	19.0972222222222	NA	26	NA	NA	52	NA	55	70	78.5714285714286
MSigDB_chris_UPandDN-MGclus_FC0	CrossTalkB	MSIGDB-chris-UPandDN__KUUSELO_PANCREATIC_CANCER_19Q13_AMPLIFICATION	path:hsa05212	0.455804	0.880267046488625	82	288	28.4722222222222	NA	0	NA	NA	2	NA	NA	6	NA
MSigDB_chris_UPandDN-MGclus_FC0	Ease_cl	MSIGDB-chris-UPandDN__KUUSELO_PANCREATIC_CANCER_19Q13_AMPLIFICATION	path:hsa05212	1	1	NA	288	NA	NA	0	NA	NA	0	NA	NA	0	NA
MSigDB_chris_UPandDN-MGclus_FC0	Ease	MSIGDB-chris-UPandDN__KUUSELO_PANCREATIC_CANCER_19Q13_AMPLIFICATION	path:hsa05212	1	1	NA	288	NA	NA	0	NA	NA	0	NA	NA	0	NA
MSigDB_chris_UPandDN-MGclus_FC0	Fisher_cl	MSIGDB-chris-UPandDN__KUUSELO_PANCREATIC_CANCER_19Q13_AMPLIFICATION	path:hsa05212	0.0114296911227003	0.0948480836797189	11	288	3.81944444444444	NA	0	NA	NA	0	NA	11	17	64.7058823529412
MSigDB_chris_UPandDN-MGclus_FC0	Fisher	MSIGDB-chris-UPandDN__KUUSELO_PANCREATIC_CANCER_19Q13_AMPLIFICATION	path:hsa05212	0.0773549345904706	0.630905984626457	16	288	5.55555555555556	NA	0	NA	NA	0	NA	NA	0	NA
MSigDB_chris_UPandDN-MGclus_FC0	CrossTalkB_cl	MSIGDB-chris-UPandDN__LAIHO_COLORECTAL_CANCER_SERRATED	path:hsa05210	0.00506504	0.0130722231115029	206	288	71.5277777777778	NA	204	NA	206	229	89.9563318777293	206	239	86.1924686192469
MSigDB_chris_UPandDN-MGclus_FC0	CrossTalkB	MSIGDB-chris-UPandDN__LAIHO_COLORECTAL_CANCER_SERRATED	path:hsa05210	0.366021	0.760064642950006	183	288	63.5416666666667	NA	75	NA	NA	95	NA	NA	114	NA
MSigDB_chris_UPandDN-MGclus_FC0	Ease_cl	MSIGDB-chris-UPandDN__LAIHO_COLORECTAL_CANCER_SERRATED	path:hsa05210	1	1	NA	288	NA	NA	0	NA	NA	0	NA	NA	1	NA
MSigDB_chris_UPandDN-MGclus_FC0	Ease	MSIGDB-chris-UPandDN__LAIHO_COLORECTAL_CANCER_SERRATED	path:hsa05210	1	1	NA	288	NA	NA	0	NA	NA	0	NA	NA	0	NA
MSigDB_chris_UPandDN-MGclus_FC0	Fisher_cl	MSIGDB-chris-UPandDN__LAIHO_COLORECTAL_CANCER_SERRATED	path:hsa05210	1	1	NA	288	NA	NA	3	NA	NA	15	NA	NA	28	NA
MSigDB_chris_UPandDN-MGclus_FC0	Fisher	MSIGDB-chris-UPandDN__LAIHO_COLORECTAL_CANCER_SERRATED	path:hsa05210	1	1	NA	288	NA	NA	0	NA	NA	0	NA	NA	0	NA
MSigDB_chris_UPandDN-MGclus_FC0	CrossTalkB_cl	MSIGDB-chris-UPandDN__LAU_APOPTOSIS_CDKN2A	path:hsa04210	2.09275e-71	3.75157469387755e-69	1	288	0.347222222222222	1	163	0.613496932515337	1	188	0.531914893617021	1	199	0.50251256281407
MSigDB_chris_UPandDN-MGclus_FC0	CrossTalkB	MSIGDB-chris-UPandDN__LAU_APOPTOSIS_CDKN2A	path:hsa04210	2.13778e-64	5.07520527567568e-62	1	288	0.347222222222222	1	94	1.06382978723404	1	114	0.87719298245614	1	117	0.854700854700855
MSigDB_chris_UPandDN-MGclus_FC0	Ease_cl	MSIGDB-chris-UPandDN__LAU_APOPTOSIS_CDKN2A	path:hsa04210	5.03996735937149e-10	4.66011297733886e-07	1	288	0.347222222222222	1	13	7.69230769230769	1	24	4.16666666666667	1	29	3.44827586206897
MSigDB_chris_UPandDN-MGclus_FC0	Ease	MSIGDB-chris-UPandDN__LAU_APOPTOSIS_CDKN2A	path:hsa04210	4.06559427739914e-18	1.7856090066337e-14	1	288	0.347222222222222	1	27	3.7037037037037	1	39	2.56410256410256	1	40	2.5
MSigDB_chris_UPandDN-MGclus_FC0	Fisher_cl	MSIGDB-chris-UPandDN__LAU_APOPTOSIS_CDKN2A	path:hsa04210	2.07672949490108e-12	2.28024898540139e-09	1	288	0.347222222222222	1	38	2.63157894736842	1	48	2.08333333333333	1	51	1.96078431372549
MSigDB_chris_UPandDN-MGclus_FC0	Fisher	MSIGDB-chris-UPandDN__LAU_APOPTOSIS_CDKN2A	path:hsa04210	4.85182128484862e-20	2.84122654440735e-16	1	288	0.347222222222222	1	40	2.5	1	48	2.08333333333333	1	53	1.88679245283019
MSigDB_chris_UPandDN-MGclus_FC0	CrossTalkB_cl	MSIGDB-chris-UPandDN__LINDGREN_BLADDER_CANCER_CLUSTER_1	path:hsa05219	1.27818e-13	1.25798690420168e-12	41	288	14.2361111111111	41	202	20.2970297029703	41	230	17.8260869565217	41	243	16.8724279835391
MSigDB_chris_UPandDN-MGclus_FC0	CrossTalkB	MSIGDB-chris-UPandDN__LINDGREN_BLADDER_CANCER_CLUSTER_1	path:hsa05219	1.25746e-12	2.35011247659574e-11	20	288	6.94444444444444	20	49	40.8163265306122	20	60	33.3333333333333	20	71	28.169014084507
MSigDB_chris_UPandDN-MGclus_FC0	Ease_cl	MSIGDB-chris-UPandDN__LINDGREN_BLADDER_CANCER_CLUSTER_1	path:hsa05219	1	1	NA	288	NA	NA	2	NA	NA	5	NA	NA	8	NA
MSigDB_chris_UPandDN-MGclus_FC0	Ease	MSIGDB-chris-UPandDN__LINDGREN_BLADDER_CANCER_CLUSTER_1	path:hsa05219	0.563565911407796	1	117	288	40.625	NA	3	NA	NA	6	NA	NA	9	NA
MSigDB_chris_UPandDN-MGclus_FC0	Fisher_cl	MSIGDB-chris-UPandDN__LINDGREN_BLADDER_CANCER_CLUSTER_1	path:hsa05219	0.0261181458211208	0.141662551063814	90	288	31.25	NA	16	NA	NA	43	NA	NA	68	NA
MSigDB_chris_UPandDN-MGclus_FC0	Fisher	MSIGDB-chris-UPandDN__LINDGREN_BLADDER_CANCER_CLUSTER_1	path:hsa05219	0.197432929621805	0.93768632268069	105	288	36.4583333333333	NA	7	NA	NA	14	NA	NA	17	NA
MSigDB_chris_UPandDN-MGclus_FC0	CrossTalkB_cl	MSIGDB-chris-UPandDN__LINDGREN_BLADDER_CANCER_CLUSTER_2A	path:hsa05219	0.183881	0.313359337278106	256	288	88.8888888888889	NA	176	NA	NA	210	NA	NA	221	NA
MSigDB_chris_UPandDN-MGclus_FC0	CrossTalkB	MSIGDB-chris-UPandDN__LINDGREN_BLADDER_CANCER_CLUSTER_2A	path:hsa05219	0.600481	1	212	288	73.6111111111111	NA	84	NA	NA	110	NA	NA	119	NA
MSigDB_chris_UPandDN-MGclus_FC0	Ease_cl	MSIGDB-chris-UPandDN__LINDGREN_BLADDER_CANCER_CLUSTER_2A	path:hsa05219	1	1	NA	288	NA	NA	1	NA	NA	1	NA	NA	2	NA
MSigDB_chris_UPandDN-MGclus_FC0	Ease	MSIGDB-chris-UPandDN__LINDGREN_BLADDER_CANCER_CLUSTER_2A	path:hsa05219	1	1	NA	288	NA	NA	1	NA	NA	1	NA	NA	1	NA
MSigDB_chris_UPandDN-MGclus_FC0	Fisher_cl	MSIGDB-chris-UPandDN__LINDGREN_BLADDER_CANCER_CLUSTER_2A	path:hsa05219	1	1	NA	288	NA	NA	7	NA	NA	21	NA	NA	27	NA
MSigDB_chris_UPandDN-MGclus_FC0	Fisher	MSIGDB-chris-UPandDN__LINDGREN_BLADDER_CANCER_CLUSTER_2A	path:hsa05219	1	1	NA	288	NA	NA	1	NA	NA	1	NA	NA	1	NA
MSigDB_chris_UPandDN-MGclus_FC0	CrossTalkB_cl	MSIGDB-chris-UPandDN__LINDGREN_BLADDER_CANCER_CLUSTER_2B	path:hsa05219	2.73277e-12	2.37787535215453e-11	105	288	36.4583333333333	105	221	47.5113122171946	105	245	42.8571428571429	105	254	41.3385826771654
MSigDB_chris_UPandDN-MGclus_FC0	CrossTalkB	MSIGDB-chris-UPandDN__LINDGREN_BLADDER_CANCER_CLUSTER_2B	path:hsa05219	3.79274e-17	9.79865534117647e-16	88	288	30.5555555555556	88	152	57.8947368421053	88	160	55	88	164	53.6585365853659
MSigDB_chris_UPandDN-MGclus_FC0	Ease_cl	MSIGDB-chris-UPandDN__LINDGREN_BLADDER_CANCER_CLUSTER_2B	path:hsa05219	1	1	NA	288	NA	NA	7	NA	NA	12	NA	NA	15	NA
MSigDB_chris_UPandDN-MGclus_FC0	Ease	MSIGDB-chris-UPandDN__LINDGREN_BLADDER_CANCER_CLUSTER_2B	path:hsa05219	1	1	NA	288	NA	NA	12	NA	NA	21	NA	NA	27	NA
MSigDB_chris_UPandDN-MGclus_FC0	Fisher_cl	MSIGDB-chris-UPandDN__LINDGREN_BLADDER_CANCER_CLUSTER_2B	path:hsa05219	0.0839981874063161	0.301651708167245	184	288	63.8888888888889	NA	37	NA	NA	66	NA	NA	98	NA
MSigDB_chris_UPandDN-MGclus_FC0	Fisher	MSIGDB-chris-UPandDN__LINDGREN_BLADDER_CANCER_CLUSTER_2B	path:hsa05219	0.477285113085761	1	147	288	51.0416666666667	NA	23	NA	NA	36	NA	NA	39	NA
MSigDB_chris_UPandDN-MGclus_FC0	CrossTalkB_cl	MSIGDB-chris-UPandDN__LINDGREN_BLADDER_CANCER_CLUSTER_3	path:hsa05219	8.77012e-19	1.29800731390059e-17	38	288	13.1944444444444	38	152	25	38	179	21.2290502793296	38	202	18.8118811881188
MSigDB_chris_UPandDN-MGclus_FC0	CrossTalkB	MSIGDB-chris-UPandDN__LINDGREN_BLADDER_CANCER_CLUSTER_3	path:hsa05219	1.0171e-07	1.163308125e-06	21	288	7.29166666666667	21	33	63.6363636363636	21	36	58.3333333333333	21	38	55.2631578947368
MSigDB_chris_UPandDN-MGclus_FC0	Ease_cl	MSIGDB-chris-UPandDN__LINDGREN_BLADDER_CANCER_CLUSTER_3	path:hsa05219	5.63933360423081e-06	0.00113875646849571	9	288	3.125	9	13	69.2307692307692	9	20	45	9	24	37.5
MSigDB_chris_UPandDN-MGclus_FC0	Ease	MSIGDB-chris-UPandDN__LINDGREN_BLADDER_CANCER_CLUSTER_3	path:hsa05219	2.78844418211616e-05	0.00322285443364584	8	288	2.77777777777778	8	10	80	8	16	50	8	20	40
MSigDB_chris_UPandDN-MGclus_FC0	Fisher_cl	MSIGDB-chris-UPandDN__LINDGREN_BLADDER_CANCER_CLUSTER_3	path:hsa05219	2.03982654282046e-07	3.56005497738812e-05	9	288	3.125	9	27	33.3333333333333	9	48	18.75	9	75	12
MSigDB_chris_UPandDN-MGclus_FC0	Fisher	MSIGDB-chris-UPandDN__LINDGREN_BLADDER_CANCER_CLUSTER_3	path:hsa05219	2.57081790651946e-06	0.000293273564816454	8	288	2.77777777777778	8	18	44.4444444444444	8	21	38.0952380952381	8	25	32
MSigDB_chris_UPandDN-MGclus_FC0	CrossTalkB_cl	MSIGDB-chris-UPandDN__LINDGREN_BLADDER_CANCER_HIGH_RECURRENCE	path:hsa05219	5.02649e-06	2.15484080819912e-05	43	288	14.9305555555556	43	72	59.7222222222222	43	91	47.2527472527472	43	99	43.4343434343434
MSigDB_chris_UPandDN-MGclus_FC0	CrossTalkB	MSIGDB-chris-UPandDN__LINDGREN_BLADDER_CANCER_HIGH_RECURRENCE	path:hsa05219	3.15815e-05	0.000246807736654804	53	288	18.4027777777778	53	74	71.6216216216216	53	95	55.7894736842105	53	100	53
MSigDB_chris_UPandDN-MGclus_FC0	Ease_cl	MSIGDB-chris-UPandDN__LINDGREN_BLADDER_CANCER_HIGH_RECURRENCE	path:hsa05219	1	1	NA	288	NA	NA	0	NA	NA	1	NA	NA	1	NA
MSigDB_chris_UPandDN-MGclus_FC0	Ease	MSIGDB-chris-UPandDN__LINDGREN_BLADDER_CANCER_HIGH_RECURRENCE	path:hsa05219	1	1	NA	288	NA	NA	3	NA	NA	6	NA	NA	7	NA
MSigDB_chris_UPandDN-MGclus_FC0	Fisher_cl	MSIGDB-chris-UPandDN__LINDGREN_BLADDER_CANCER_HIGH_RECURRENCE	path:hsa05219	1	1	NA	288	NA	NA	5	NA	NA	10	NA	NA	22	NA
MSigDB_chris_UPandDN-MGclus_FC0	Fisher	MSIGDB-chris-UPandDN__LINDGREN_BLADDER_CANCER_HIGH_RECURRENCE	path:hsa05219	1	1	NA	288	NA	NA	7	NA	NA	10	NA	NA	12	NA
MSigDB_chris_UPandDN-MGclus_FC0	CrossTalkB_cl	MSIGDB-chris-UPandDN__LINDGREN_BLADDER_CANCER_WITH_LOH_IN_CHR9Q	path:hsa05219	0.149901	0.262820435928144	188	288	65.2777777777778	NA	46	NA	NA	94	NA	NA	136	NA
MSigDB_chris_UPandDN-MGclus_FC0	CrossTalkB	MSIGDB-chris-UPandDN__LINDGREN_BLADDER_CANCER_WITH_LOH_IN_CHR9Q	path:hsa05219	0.539224	0.976725735849057	174	288	60.4166666666667	NA	11	NA	NA	21	NA	NA	31	NA
MSigDB_chris_UPandDN-MGclus_FC0	Ease_cl	MSIGDB-chris-UPandDN__LINDGREN_BLADDER_CANCER_WITH_LOH_IN_CHR9Q	path:hsa05219	1	1	NA	288	NA	NA	0	NA	NA	0	NA	NA	0	NA
MSigDB_chris_UPandDN-MGclus_FC0	Ease	MSIGDB-chris-UPandDN__LINDGREN_BLADDER_CANCER_WITH_LOH_IN_CHR9Q	path:hsa05219	1	1	NA	288	NA	NA	0	NA	NA	0	NA	NA	0	NA
MSigDB_chris_UPandDN-MGclus_FC0	Fisher_cl	MSIGDB-chris-UPandDN__LINDGREN_BLADDER_CANCER_WITH_LOH_IN_CHR9Q	path:hsa05219	1	1	NA	288	NA	NA	3	NA	NA	9	NA	NA	20	NA
MSigDB_chris_UPandDN-MGclus_FC0	Fisher	MSIGDB-chris-UPandDN__LINDGREN_BLADDER_CANCER_WITH_LOH_IN_CHR9Q	path:hsa05219	1	1	NA	288	NA	NA	0	NA	NA	0	NA	NA	1	NA
MSigDB_chris_UPandDN-MGclus_FC0	CrossTalkB_cl	MSIGDB-chris-UPandDN__LIN_MELANOMA_COPY_NUMBER	path:hsa05218	8.30511e-17	1.06655096842105e-15	46	288	15.9722222222222	46	214	21.4953271028037	46	238	19.327731092437	46	251	18.3266932270916
MSigDB_chris_UPandDN-MGclus_FC0	CrossTalkB	MSIGDB-chris-UPandDN__LIN_MELANOMA_COPY_NUMBER	path:hsa05218	0.000753568	0.00437931942573602	39	288	13.5416666666667	39	46	84.7826086956522	39	89	43.8202247191011	39	109	35.7798165137615
MSigDB_chris_UPandDN-MGclus_FC0	Ease_cl	MSIGDB-chris-UPandDN__LIN_MELANOMA_COPY_NUMBER	path:hsa05218	0.0153411091458382	0.425098746804551	18	288	6.25	NA	1	NA	NA	2	NA	NA	4	NA
MSigDB_chris_UPandDN-MGclus_FC0	Ease	MSIGDB-chris-UPandDN__LIN_MELANOMA_COPY_NUMBER	path:hsa05218	9.33078209410478e-07	0.000219447597483817	1	288	0.347222222222222	1	3	33.3333333333333	1	8	12.5	1	9	11.1111111111111
MSigDB_chris_UPandDN-MGclus_FC0	Fisher_cl	MSIGDB-chris-UPandDN__LIN_MELANOMA_COPY_NUMBER	path:hsa05218	9.33924063301744e-05	0.00349088892427341	18	288	6.25	18	34	52.9411764705882	18	49	36.734693877551	18	60	30
MSigDB_chris_UPandDN-MGclus_FC0	Fisher	MSIGDB-chris-UPandDN__LIN_MELANOMA_COPY_NUMBER	path:hsa05218	3.77194747912472e-08	9.84779978383522e-06	1	288	0.347222222222222	1	12	8.33333333333333	1	18	5.55555555555556	1	23	4.34782608695652
MSigDB_chris_UPandDN-MGclus_FC0	CrossTalkB_cl	MSIGDB-chris-UPandDN__LIU_PROSTATE_CANCER	path:hsa05215	0.0202488	0.04516472525073	116	288	40.2777777777778	NA	67	NA	116	125	92.8	116	156	74.3589743589744
MSigDB_chris_UPandDN-MGclus_FC0	CrossTalkB	MSIGDB-chris-UPandDN__LIU_PROSTATE_CANCER	path:hsa05215	0.0787718	0.234871517718941	95	288	32.9861111111111	NA	22	NA	NA	46	NA	NA	59	NA
MSigDB_chris_UPandDN-MGclus_FC0	Ease_cl	MSIGDB-chris-UPandDN__LIU_PROSTATE_CANCER	path:hsa05215	1	1	NA	288	NA	NA	0	NA	NA	0	NA	NA	1	NA
MSigDB_chris_UPandDN-MGclus_FC0	Ease	MSIGDB-chris-UPandDN__LIU_PROSTATE_CANCER	path:hsa05215	0.327217937748707	1	25	288	8.68055555555556	NA	0	NA	NA	0	NA	NA	0	NA
MSigDB_chris_UPandDN-MGclus_FC0	Fisher_cl	MSIGDB-chris-UPandDN__LIU_PROSTATE_CANCER	path:hsa05215	0.0192003257723862	0.121553629970912	35	288	12.1527777777778	NA	2	NA	NA	10	NA	NA	21	NA
MSigDB_chris_UPandDN-MGclus_FC0	Fisher	MSIGDB-chris-UPandDN__LIU_PROSTATE_CANCER	path:hsa05215	0.0594618850912222	0.54951414901767	23	288	7.98611111111111	NA	0	NA	NA	2	NA	NA	4	NA
MSigDB_chris_UPandDN-MGclus_FC0	CrossTalkB_cl	MSIGDB-chris-UPandDN__LUI_THYROID_CANCER_CLUSTER_1	path:hsa05216	1.68359e-05	6.73129474738279e-05	73	288	25.3472222222222	73	121	60.3305785123967	73	142	51.4084507042254	73	157	46.4968152866242
MSigDB_chris_UPandDN-MGclus_FC0	CrossTalkB	MSIGDB-chris-UPandDN__LUI_THYROID_CANCER_CLUSTER_1	path:hsa05216	0.000112789	0.000784743426534653	41	288	14.2361111111111	41	63	65.0793650793651	41	84	48.8095238095238	41	90	45.5555555555556
MSigDB_chris_UPandDN-MGclus_FC0	Ease_cl	MSIGDB-chris-UPandDN__LUI_THYROID_CANCER_CLUSTER_1	path:hsa05216	1	1	NA	288	NA	NA	0	NA	NA	0	NA	NA	0	NA
MSigDB_chris_UPandDN-MGclus_FC0	Ease	MSIGDB-chris-UPandDN__LUI_THYROID_CANCER_CLUSTER_1	path:hsa05216	1	1	NA	288	NA	NA	0	NA	NA	0	NA	NA	0	NA
MSigDB_chris_UPandDN-MGclus_FC0	Fisher_cl	MSIGDB-chris-UPandDN__LUI_THYROID_CANCER_CLUSTER_1	path:hsa05216	0.00503427523715272	0.0614608390314795	2	288	0.694444444444444	NA	0	NA	NA	1	NA	2	20	10
MSigDB_chris_UPandDN-MGclus_FC0	Fisher	MSIGDB-chris-UPandDN__LUI_THYROID_CANCER_CLUSTER_1	path:hsa05216	0.0647524310978688	0.577154089054977	22	288	7.63888888888889	NA	0	NA	NA	1	NA	NA	2	NA
MSigDB_chris_UPandDN-MGclus_FC0	CrossTalkB_cl	MSIGDB-chris-UPandDN__LUI_THYROID_CANCER_CLUSTER_2	path:hsa05216	0.533132	0.770932832002634	223	288	77.4305555555556	NA	76	NA	NA	107	NA	NA	128	NA
MSigDB_chris_UPandDN-MGclus_FC0	CrossTalkB	MSIGDB-chris-UPandDN__LUI_THYROID_CANCER_CLUSTER_2	path:hsa05216	0.672027	1	203	288	70.4861111111111	NA	72	NA	NA	98	NA	NA	116	NA
MSigDB_chris_UPandDN-MGclus_FC0	Ease_cl	MSIGDB-chris-UPandDN__LUI_THYROID_CANCER_CLUSTER_2	path:hsa05216	1	1	NA	288	NA	NA	0	NA	NA	0	NA	NA	0	NA
MSigDB_chris_UPandDN-MGclus_FC0	Ease	MSIGDB-chris-UPandDN__LUI_THYROID_CANCER_CLUSTER_2	path:hsa05216	1	1	NA	288	NA	NA	0	NA	NA	0	NA	NA	0	NA
MSigDB_chris_UPandDN-MGclus_FC0	Fisher_cl	MSIGDB-chris-UPandDN__LUI_THYROID_CANCER_CLUSTER_2	path:hsa05216	1	1	NA	288	NA	NA	2	NA	NA	3	NA	NA	33	NA
MSigDB_chris_UPandDN-MGclus_FC0	Fisher	MSIGDB-chris-UPandDN__LUI_THYROID_CANCER_CLUSTER_2	path:hsa05216	0.0540497081396583	0.522589583157689	19	288	6.59722222222222	NA	0	NA	NA	0	NA	NA	3	NA
MSigDB_chris_UPandDN-MGclus_FC0	CrossTalkB_cl	MSIGDB-chris-UPandDN__LUI_THYROID_CANCER_CLUSTER_3	path:hsa05216	0.988496	1	224	288	77.7777777777778	NA	13	NA	NA	30	NA	NA	35	NA
MSigDB_chris_UPandDN-MGclus_FC0	CrossTalkB	MSIGDB-chris-UPandDN__LUI_THYROID_CANCER_CLUSTER_3	path:hsa05216	0.982258	1	215	288	74.6527777777778	NA	9	NA	NA	26	NA	NA	31	NA
MSigDB_chris_UPandDN-MGclus_FC0	Ease_cl	MSIGDB-chris-UPandDN__LUI_THYROID_CANCER_CLUSTER_3	path:hsa05216	1	1	NA	288	NA	NA	0	NA	NA	1	NA	NA	1	NA
MSigDB_chris_UPandDN-MGclus_FC0	Ease	MSIGDB-chris-UPandDN__LUI_THYROID_CANCER_CLUSTER_3	path:hsa05216	1	1	NA	288	NA	NA	0	NA	NA	1	NA	NA	1	NA
MSigDB_chris_UPandDN-MGclus_FC0	Fisher_cl	MSIGDB-chris-UPandDN__LUI_THYROID_CANCER_CLUSTER_3	path:hsa05216	1	1	NA	288	NA	NA	2	NA	NA	4	NA	NA	4	NA
MSigDB_chris_UPandDN-MGclus_FC0	Fisher	MSIGDB-chris-UPandDN__LUI_THYROID_CANCER_CLUSTER_3	path:hsa05216	1	1	NA	288	NA	NA	1	NA	NA	2	NA	NA	2	NA
MSigDB_chris_UPandDN-MGclus_FC0	CrossTalkB_cl	MSIGDB-chris-UPandDN__LUI_THYROID_CANCER_CLUSTER_4	path:hsa05216	0.640566	0.897719615218952	66	288	22.9166666666667	NA	27	NA	NA	29	NA	NA	32	NA
MSigDB_chris_UPandDN-MGclus_FC0	CrossTalkB	MSIGDB-chris-UPandDN__LUI_THYROID_CANCER_CLUSTER_4	path:hsa05216	0.712428	1	135	288	46.875	NA	30	NA	NA	41	NA	NA	43	NA
MSigDB_chris_UPandDN-MGclus_FC0	Ease_cl	MSIGDB-chris-UPandDN__LUI_THYROID_CANCER_CLUSTER_4	path:hsa05216	1	1	NA	288	NA	NA	0	NA	NA	0	NA	NA	0	NA
MSigDB_chris_UPandDN-MGclus_FC0	Ease	MSIGDB-chris-UPandDN__LUI_THYROID_CANCER_CLUSTER_4	path:hsa05216	1	1	NA	288	NA	NA	0	NA	NA	0	NA	NA	0	NA
MSigDB_chris_UPandDN-MGclus_FC0	Fisher_cl	MSIGDB-chris-UPandDN__LUI_THYROID_CANCER_CLUSTER_4	path:hsa05216	1	1	NA	288	NA	NA	0	NA	NA	0	NA	NA	0	NA
MSigDB_chris_UPandDN-MGclus_FC0	Fisher	MSIGDB-chris-UPandDN__LUI_THYROID_CANCER_CLUSTER_4	path:hsa05216	1	1	NA	288	NA	NA	0	NA	NA	0	NA	NA	0	NA
MSigDB_chris_UPandDN-MGclus_FC0	CrossTalkB_cl	MSIGDB-chris-UPandDN__LUI_THYROID_CANCER_CLUSTER_5	path:hsa05216	1	1	NA	288	NA	NA	37	NA	NA	44	NA	NA	47	NA
MSigDB_chris_UPandDN-MGclus_FC0	CrossTalkB	MSIGDB-chris-UPandDN__LUI_THYROID_CANCER_CLUSTER_5	path:hsa05216	0.860849	1	152	288	52.7777777777778	NA	48	NA	NA	59	NA	NA	66	NA
MSigDB_chris_UPandDN-MGclus_FC0	Ease_cl	MSIGDB-chris-UPandDN__LUI_THYROID_CANCER_CLUSTER_5	path:hsa05216	1	1	NA	288	NA	NA	0	NA	NA	0	NA	NA	0	NA
MSigDB_chris_UPandDN-MGclus_FC0	Ease	MSIGDB-chris-UPandDN__LUI_THYROID_CANCER_CLUSTER_5	path:hsa05216	1	1	NA	288	NA	NA	0	NA	NA	0	NA	NA	1	NA
MSigDB_chris_UPandDN-MGclus_FC0	Fisher_cl	MSIGDB-chris-UPandDN__LUI_THYROID_CANCER_CLUSTER_5	path:hsa05216	1	1	NA	288	NA	NA	2	NA	NA	7	NA	NA	10	NA
MSigDB_chris_UPandDN-MGclus_FC0	Fisher	MSIGDB-chris-UPandDN__LUI_THYROID_CANCER_CLUSTER_5	path:hsa05216	1	1	NA	288	NA	NA	1	NA	NA	2	NA	NA	2	NA
MSigDB_chris_UPandDN-MGclus_FC0	CrossTalkB_cl	MSIGDB-chris-UPandDN__LUI_THYROID_CANCER_PAX8_PPARG	path:hsa05216	0.0169396	0.0385985593774319	144	288	50	NA	113	NA	144	153	94.1176470588235	144	165	87.2727272727273
MSigDB_chris_UPandDN-MGclus_FC0	CrossTalkB	MSIGDB-chris-UPandDN__LUI_THYROID_CANCER_PAX8_PPARG	path:hsa05216	0.343324	0.726951432083886	168	288	58.3333333333333	NA	13	NA	NA	39	NA	NA	57	NA
MSigDB_chris_UPandDN-MGclus_FC0	Ease_cl	MSIGDB-chris-UPandDN__LUI_THYROID_CANCER_PAX8_PPARG	path:hsa05216	1	1	NA	288	NA	NA	0	NA	NA	0	NA	NA	1	NA
MSigDB_chris_UPandDN-MGclus_FC0	Ease	MSIGDB-chris-UPandDN__LUI_THYROID_CANCER_PAX8_PPARG	path:hsa05216	1	1	NA	288	NA	NA	0	NA	NA	0	NA	NA	0	NA
MSigDB_chris_UPandDN-MGclus_FC0	Fisher_cl	MSIGDB-chris-UPandDN__LUI_THYROID_CANCER_PAX8_PPARG	path:hsa05216	0.0273872970454555	0.144878059167288	14	288	4.86111111111111	NA	1	NA	NA	4	NA	NA	11	NA
MSigDB_chris_UPandDN-MGclus_FC0	Fisher	MSIGDB-chris-UPandDN__LUI_THYROID_CANCER_PAX8_PPARG	path:hsa05216	0.114294560422672	0.747535753739902	38	288	13.1944444444444	NA	0	NA	NA	3	NA	NA	3	NA
MSigDB_chris_UPandDN-MGclus_FC0	CrossTalkB_cl	MSIGDB-chris-UPandDN__MONTERO_THYROID_CANCER_POOR_SURVIVAL	path:hsa05216	0.401896	0.608979552182163	70	288	24.3055555555556	NA	20	NA	NA	25	NA	NA	31	NA
MSigDB_chris_UPandDN-MGclus_FC0	CrossTalkB	MSIGDB-chris-UPandDN__MONTERO_THYROID_CANCER_POOR_SURVIVAL	path:hsa05216	0.308002	0.673761565932014	63	288	21.875	NA	17	NA	NA	23	NA	NA	26	NA
MSigDB_chris_UPandDN-MGclus_FC0	Ease_cl	MSIGDB-chris-UPandDN__MONTERO_THYROID_CANCER_POOR_SURVIVAL	path:hsa05216	1	1	NA	288	NA	NA	0	NA	NA	0	NA	NA	0	NA
MSigDB_chris_UPandDN-MGclus_FC0	Ease	MSIGDB-chris-UPandDN__MONTERO_THYROID_CANCER_POOR_SURVIVAL	path:hsa05216	1	1	NA	288	NA	NA	0	NA	NA	0	NA	NA	1	NA
MSigDB_chris_UPandDN-MGclus_FC0	Fisher_cl	MSIGDB-chris-UPandDN__MONTERO_THYROID_CANCER_POOR_SURVIVAL	path:hsa05216	1	1	NA	288	NA	NA	0	NA	NA	1	NA	NA	1	NA
MSigDB_chris_UPandDN-MGclus_FC0	Fisher	MSIGDB-chris-UPandDN__MONTERO_THYROID_CANCER_POOR_SURVIVAL	path:hsa05216	1	1	NA	288	NA	NA	1	NA	NA	1	NA	NA	1	NA
MSigDB_chris_UPandDN-MGclus_FC0	CrossTalkB_cl	MSIGDB-chris-UPandDN__NGO_MALIGNANT_GLIOMA_1P_LOH	path:hsa05214	1	1	NA	288	NA	NA	0	NA	NA	0	NA	NA	0	NA
MSigDB_chris_UPandDN-MGclus_FC0	CrossTalkB	MSIGDB-chris-UPandDN__NGO_MALIGNANT_GLIOMA_1P_LOH	path:hsa05214	0.075063	0.225651400410678	139	288	48.2638888888889	NA	51	NA	NA	81	NA	NA	107	NA
MSigDB_chris_UPandDN-MGclus_FC0	Ease_cl	MSIGDB-chris-UPandDN__NGO_MALIGNANT_GLIOMA_1P_LOH	path:hsa05214	1	1	NA	288	NA	NA	0	NA	NA	0	NA	NA	0	NA
MSigDB_chris_UPandDN-MGclus_FC0	Ease	MSIGDB-chris-UPandDN__NGO_MALIGNANT_GLIOMA_1P_LOH	path:hsa05214	1	1	NA	288	NA	NA	0	NA	NA	0	NA	NA	0	NA
MSigDB_chris_UPandDN-MGclus_FC0	Fisher_cl	MSIGDB-chris-UPandDN__NGO_MALIGNANT_GLIOMA_1P_LOH	path:hsa05214	1	1	NA	288	NA	NA	4	NA	NA	5	NA	NA	11	NA
MSigDB_chris_UPandDN-MGclus_FC0	Fisher	MSIGDB-chris-UPandDN__NGO_MALIGNANT_GLIOMA_1P_LOH	path:hsa05214	1	1	NA	288	NA	NA	0	NA	NA	4	NA	NA	4	NA
MSigDB_chris_UPandDN-MGclus_FC0	CrossTalkB_cl	MSIGDB-chris-UPandDN__NUTT_GBM_VS_AO_GLIOMA	path:hsa05214	6.62488e-07	3.19829326298434e-06	101	288	35.0694444444444	101	191	52.8795811518325	101	216	46.7592592592593	101	226	44.6902654867257
MSigDB_chris_UPandDN-MGclus_FC0	CrossTalkB	MSIGDB-chris-UPandDN__NUTT_GBM_VS_AO_GLIOMA	path:hsa05214	0.0034133	0.0166893555246312	102	288	35.4166666666667	NA	94	NA	102	115	88.695652173913	102	134	76.1194029850746
MSigDB_chris_UPandDN-MGclus_FC0	Ease_cl	MSIGDB-chris-UPandDN__NUTT_GBM_VS_AO_GLIOMA	path:hsa05214	1	1	NA	288	NA	NA	1	NA	NA	2	NA	NA	2	NA
MSigDB_chris_UPandDN-MGclus_FC0	Ease	MSIGDB-chris-UPandDN__NUTT_GBM_VS_AO_GLIOMA	path:hsa05214	1	1	NA	288	NA	NA	1	NA	NA	1	NA	NA	1	NA
MSigDB_chris_UPandDN-MGclus_FC0	Fisher_cl	MSIGDB-chris-UPandDN__NUTT_GBM_VS_AO_GLIOMA	path:hsa05214	0.0523715196765313	0.215572365903773	64	288	22.2222222222222	NA	3	NA	NA	13	NA	NA	31	NA
MSigDB_chris_UPandDN-MGclus_FC0	Fisher	MSIGDB-chris-UPandDN__NUTT_GBM_VS_AO_GLIOMA	path:hsa05214	0.233996337932031	1	81	288	28.125	NA	1	NA	NA	2	NA	NA	3	NA
MSigDB_chris_UPandDN-MGclus_FC0	CrossTalkB_cl	MSIGDB-chris-UPandDN__OSMAN_BLADDER_CANCER	path:hsa05219	0.000365394	0.00117762645239406	236	288	81.9444444444444	236	255	92.5490196078431	236	269	87.732342007435	236	272	86.7647058823529
MSigDB_chris_UPandDN-MGclus_FC0	CrossTalkB	MSIGDB-chris-UPandDN__OSMAN_BLADDER_CANCER	path:hsa05219	0.00500743	0.0232112216992084	113	288	39.2361111111111	NA	91	NA	113	131	86.2595419847328	113	144	78.4722222222222
MSigDB_chris_UPandDN-MGclus_FC0	Ease_cl	MSIGDB-chris-UPandDN__OSMAN_BLADDER_CANCER	path:hsa05219	1	1	NA	288	NA	NA	4	NA	NA	4	NA	NA	5	NA
MSigDB_chris_UPandDN-MGclus_FC0	Ease	MSIGDB-chris-UPandDN__OSMAN_BLADDER_CANCER	path:hsa05219	1	1	NA	288	NA	NA	0	NA	NA	0	NA	NA	1	NA
MSigDB_chris_UPandDN-MGclus_FC0	Fisher_cl	MSIGDB-chris-UPandDN__OSMAN_BLADDER_CANCER	path:hsa05219	1	1	NA	288	NA	NA	15	NA	NA	40	NA	NA	83	NA
MSigDB_chris_UPandDN-MGclus_FC0	Fisher	MSIGDB-chris-UPandDN__OSMAN_BLADDER_CANCER	path:hsa05219	1	1	NA	288	NA	NA	0	NA	NA	1	NA	NA	4	NA
MSigDB_chris_UPandDN-MGclus_FC0	CrossTalkB_cl	MSIGDB-chris-UPandDN__OUYANG_PROSTATE_CANCER_MARKERS	path:hsa05215	7.97773e-15	8.66745582189239e-14	28	288	9.72222222222222	28	102	27.4509803921569	28	108	25.9259259259259	28	117	23.9316239316239
MSigDB_chris_UPandDN-MGclus_FC0	CrossTalkB	MSIGDB-chris-UPandDN__OUYANG_PROSTATE_CANCER_MARKERS	path:hsa05215	1.56828e-22	5.59990712195122e-21	6	288	2.08333333333333	6	79	7.59493670886076	6	95	6.31578947368421	6	102	5.88235294117647
MSigDB_chris_UPandDN-MGclus_FC0	Ease_cl	MSIGDB-chris-UPandDN__OUYANG_PROSTATE_CANCER_MARKERS	path:hsa05215	1	1	NA	288	NA	NA	0	NA	NA	0	NA	NA	0	NA
MSigDB_chris_UPandDN-MGclus_FC0	Ease	MSIGDB-chris-UPandDN__OUYANG_PROSTATE_CANCER_MARKERS	path:hsa05215	0.000106880766316994	0.00993482170717963	4	288	1.38888888888889	4	4	100	4	4	100	4	5	80
MSigDB_chris_UPandDN-MGclus_FC0	Fisher_cl	MSIGDB-chris-UPandDN__OUYANG_PROSTATE_CANCER_MARKERS	path:hsa05215	0.0077243244980405	0.0785925964196724	18	288	6.25	NA	1	NA	NA	3	NA	18	29	62.0689655172414
MSigDB_chris_UPandDN-MGclus_FC0	Fisher	MSIGDB-chris-UPandDN__OUYANG_PROSTATE_CANCER_MARKERS	path:hsa05215	2.09778577913258e-06	0.000249012841674332	4	288	1.38888888888889	4	7	57.1428571428571	4	11	36.3636363636364	4	17	23.5294117647059
MSigDB_chris_UPandDN-MGclus_FC0	CrossTalkB_cl	MSIGDB-chris-UPandDN__OUYANG_PROSTATE_CANCER_PROGRESSION	path:hsa05215	1.00681e-25	2.39669892682927e-24	37	288	12.8472222222222	37	144	25.6944444444444	37	158	23.4177215189873	37	163	22.6993865030675
MSigDB_chris_UPandDN-MGclus_FC0	CrossTalkB	MSIGDB-chris-UPandDN__OUYANG_PROSTATE_CANCER_PROGRESSION	path:hsa05215	6.54724e-35	4.63798033548387e-33	32	288	11.1111111111111	32	129	24.8062015503876	32	140	22.8571428571429	32	148	21.6216216216216
MSigDB_chris_UPandDN-MGclus_FC0	Ease_cl	MSIGDB-chris-UPandDN__OUYANG_PROSTATE_CANCER_PROGRESSION	path:hsa05215	1	1	NA	288	NA	NA	8	NA	NA	15	NA	NA	20	NA
MSigDB_chris_UPandDN-MGclus_FC0	Ease	MSIGDB-chris-UPandDN__OUYANG_PROSTATE_CANCER_PROGRESSION	path:hsa05215	0.147087727811869	1	60	288	20.8333333333333	NA	12	NA	NA	23	NA	NA	26	NA
MSigDB_chris_UPandDN-MGclus_FC0	Fisher_cl	MSIGDB-chris-UPandDN__OUYANG_PROSTATE_CANCER_PROGRESSION	path:hsa05215	0.0380360624215763	0.175569507257554	86	288	29.8611111111111	NA	30	NA	NA	53	NA	NA	58	NA
MSigDB_chris_UPandDN-MGclus_FC0	Fisher	MSIGDB-chris-UPandDN__OUYANG_PROSTATE_CANCER_PROGRESSION	path:hsa05215	0.0110081125255023	0.203354911512118	59	288	20.4861111111111	NA	27	NA	NA	43	NA	NA	50	NA
MSigDB_chris_UPandDN-MGclus_FC0	CrossTalkB_cl	MSIGDB-chris-UPandDN__ROSS_ACUTE_MYELOID_LEUKEMIA_CBF	path:hsa05221	0.000147354	0.000513226620142744	90	288	31.25	90	140	64.2857142857143	90	170	52.9411764705882	90	185	48.6486486486487
MSigDB_chris_UPandDN-MGclus_FC0	CrossTalkB	MSIGDB-chris-UPandDN__ROSS_ACUTE_MYELOID_LEUKEMIA_CBF	path:hsa05221	1.64969e-05	0.000134924366480447	84	288	29.1666666666667	84	131	64.1221374045801	84	160	52.5	84	174	48.2758620689655
MSigDB_chris_UPandDN-MGclus_FC0	Ease_cl	MSIGDB-chris-UPandDN__ROSS_ACUTE_MYELOID_LEUKEMIA_CBF	path:hsa05221	1	1	NA	288	NA	NA	0	NA	NA	0	NA	NA	0	NA
MSigDB_chris_UPandDN-MGclus_FC0	Ease	MSIGDB-chris-UPandDN__ROSS_ACUTE_MYELOID_LEUKEMIA_CBF	path:hsa05221	1	1	NA	288	NA	NA	0	NA	NA	0	NA	NA	0	NA
MSigDB_chris_UPandDN-MGclus_FC0	Fisher_cl	MSIGDB-chris-UPandDN__ROSS_ACUTE_MYELOID_LEUKEMIA_CBF	path:hsa05221	1	1	NA	288	NA	NA	4	NA	NA	5	NA	NA	18	NA
MSigDB_chris_UPandDN-MGclus_FC0	Fisher	MSIGDB-chris-UPandDN__ROSS_ACUTE_MYELOID_LEUKEMIA_CBF	path:hsa05221	0.192482665416128	0.928228229416165	47	288	16.3194444444444	NA	0	NA	NA	0	NA	NA	0	NA
MSigDB_chris_UPandDN-MGclus_FC0	CrossTalkB_cl	MSIGDB-chris-UPandDN__ROVERSI_GLIOMA_COPY_NUMBER	path:hsa05214	0.000198207	0.000672609730732084	85	288	29.5138888888889	85	136	62.5	85	178	47.752808988764	85	206	41.2621359223301
MSigDB_chris_UPandDN-MGclus_FC0	CrossTalkB	MSIGDB-chris-UPandDN__ROVERSI_GLIOMA_COPY_NUMBER	path:hsa05214	0.00438017	0.020696833394298	17	288	5.90277777777778	NA	11	NA	17	25	68	17	36	47.2222222222222
MSigDB_chris_UPandDN-MGclus_FC0	Ease_cl	MSIGDB-chris-UPandDN__ROVERSI_GLIOMA_COPY_NUMBER	path:hsa05214	1	1	NA	288	NA	NA	1	NA	NA	1	NA	NA	1	NA
MSigDB_chris_UPandDN-MGclus_FC0	Ease	MSIGDB-chris-UPandDN__ROVERSI_GLIOMA_COPY_NUMBER	path:hsa05214	0.312463979953506	1	30	288	10.4166666666667	NA	1	NA	NA	1	NA	NA	1	NA
MSigDB_chris_UPandDN-MGclus_FC0	Fisher_cl	MSIGDB-chris-UPandDN__ROVERSI_GLIOMA_COPY_NUMBER	path:hsa05214	0.0223896993957449	0.131994039927667	62	288	21.5277777777778	NA	6	NA	NA	15	NA	NA	34	NA
MSigDB_chris_UPandDN-MGclus_FC0	Fisher	MSIGDB-chris-UPandDN__ROVERSI_GLIOMA_COPY_NUMBER	path:hsa05214	0.053778703160009	0.521537474950527	25	288	8.68055555555556	NA	1	NA	NA	4	NA	NA	5	NA
MSigDB_chris_UPandDN-MGclus_FC0	CrossTalkB_cl	MSIGDB-chris-UPandDN__ROVERSI_GLIOMA_LOH_REGIONS	path:hsa05214	0.0169712	0.0386455011795204	35	288	12.1527777777778	NA	21	NA	35	35	100	35	50	70
MSigDB_chris_UPandDN-MGclus_FC0	CrossTalkB	MSIGDB-chris-UPandDN__ROVERSI_GLIOMA_LOH_REGIONS	path:hsa05214	0.853737	1	199	288	69.0972222222222	NA	0	NA	NA	8	NA	NA	10	NA
MSigDB_chris_UPandDN-MGclus_FC0	Ease_cl	MSIGDB-chris-UPandDN__ROVERSI_GLIOMA_LOH_REGIONS	path:hsa05214	1	1	NA	288	NA	NA	0	NA	NA	0	NA	NA	0	NA
MSigDB_chris_UPandDN-MGclus_FC0	Ease	MSIGDB-chris-UPandDN__ROVERSI_GLIOMA_LOH_REGIONS	path:hsa05214	1	1	NA	288	NA	NA	0	NA	NA	0	NA	NA	0	NA
MSigDB_chris_UPandDN-MGclus_FC0	Fisher_cl	MSIGDB-chris-UPandDN__ROVERSI_GLIOMA_LOH_REGIONS	path:hsa05214	1	1	NA	288	NA	NA	0	NA	NA	3	NA	NA	16	NA
MSigDB_chris_UPandDN-MGclus_FC0	Fisher	MSIGDB-chris-UPandDN__ROVERSI_GLIOMA_LOH_REGIONS	path:hsa05214	1	1	NA	288	NA	NA	0	NA	NA	0	NA	NA	1	NA
MSigDB_chris_UPandDN-MGclus_FC0	CrossTalkB_cl	MSIGDB-chris-UPandDN__SATO_SILENCED_BY_METHYLATION_IN_PANCREATIC_CANCER_2	path:hsa05212	0.352053	0.54521042877292	116	288	40.2777777777778	NA	20	NA	NA	39	NA	NA	49	NA
MSigDB_chris_UPandDN-MGclus_FC0	CrossTalkB	MSIGDB-chris-UPandDN__SATO_SILENCED_BY_METHYLATION_IN_PANCREATIC_CANCER_2	path:hsa05212	0.0487991	0.159002129376855	54	288	18.75	NA	15	NA	NA	36	NA	NA	44	NA
MSigDB_chris_UPandDN-MGclus_FC0	Ease_cl	MSIGDB-chris-UPandDN__SATO_SILENCED_BY_METHYLATION_IN_PANCREATIC_CANCER_2	path:hsa05212	1	1	NA	288	NA	NA	0	NA	NA	0	NA	NA	0	NA
MSigDB_chris_UPandDN-MGclus_FC0	Ease	MSIGDB-chris-UPandDN__SATO_SILENCED_BY_METHYLATION_IN_PANCREATIC_CANCER_2	path:hsa05212	1	1	NA	288	NA	NA	0	NA	NA	0	NA	NA	0	NA
MSigDB_chris_UPandDN-MGclus_FC0	Fisher_cl	MSIGDB-chris-UPandDN__SATO_SILENCED_BY_METHYLATION_IN_PANCREATIC_CANCER_2	path:hsa05212	1	1	NA	288	NA	NA	0	NA	NA	0	NA	NA	13	NA
MSigDB_chris_UPandDN-MGclus_FC0	Fisher	MSIGDB-chris-UPandDN__SATO_SILENCED_BY_METHYLATION_IN_PANCREATIC_CANCER_2	path:hsa05212	1	1	NA	288	NA	NA	0	NA	NA	2	NA	NA	4	NA
MSigDB_chris_UPandDN-MGclus_FC0	CrossTalkB_cl	MSIGDB-chris-UPandDN__SATO_SILENCED_EPIGENETICALLY_IN_PANCREATIC_CANCER	path:hsa05212	0.00320042	0.008612895	30	288	10.4166666666667	30	30	100	30	36	83.3333333333333	30	40	75
MSigDB_chris_UPandDN-MGclus_FC0	CrossTalkB	MSIGDB-chris-UPandDN__SATO_SILENCED_EPIGENETICALLY_IN_PANCREATIC_CANCER	path:hsa05212	3.43992e-06	3.19073466525871e-05	24	288	8.33333333333333	24	63	38.0952380952381	24	88	27.2727272727273	24	107	22.4299065420561
MSigDB_chris_UPandDN-MGclus_FC0	Ease_cl	MSIGDB-chris-UPandDN__SATO_SILENCED_EPIGENETICALLY_IN_PANCREATIC_CANCER	path:hsa05212	1	1	NA	288	NA	NA	0	NA	NA	0	NA	NA	0	NA
MSigDB_chris_UPandDN-MGclus_FC0	Ease	MSIGDB-chris-UPandDN__SATO_SILENCED_EPIGENETICALLY_IN_PANCREATIC_CANCER	path:hsa05212	0.12393888784224	1	10	288	3.47222222222222	NA	0	NA	NA	1	NA	NA	1	NA
MSigDB_chris_UPandDN-MGclus_FC0	Fisher_cl	MSIGDB-chris-UPandDN__SATO_SILENCED_EPIGENETICALLY_IN_PANCREATIC_CANCER	path:hsa05212	0.0114296911227003	0.0948480836797189	24	288	8.33333333333333	NA	5	NA	NA	9	NA	24	31	77.4193548387097
MSigDB_chris_UPandDN-MGclus_FC0	Fisher	MSIGDB-chris-UPandDN__SATO_SILENCED_EPIGENETICALLY_IN_PANCREATIC_CANCER	path:hsa05212	0.00773802557167505	0.162221519383278	8	288	2.77777777777778	NA	1	NA	NA	1	NA	NA	6	NA
MSigDB_chris_UPandDN-MGclus_FC0	CrossTalkB_cl	MSIGDB-chris-UPandDN__SCIAN_CELL_CYCLE_TARGETS_OF_TP53_AND_TP73	path:hsa04110	7.79782e-129	4.15127581090909e-126	1	288	0.347222222222222	1	67	1.49253731343284	1	81	1.23456790123457	1	87	1.14942528735632
MSigDB_chris_UPandDN-MGclus_FC0	CrossTalkB	MSIGDB-chris-UPandDN__SCIAN_CELL_CYCLE_TARGETS_OF_TP53_AND_TP73	path:hsa04110	7.28181e-126	9.13763129142857e-123	1	288	0.347222222222222	1	58	1.72413793103448	1	77	1.2987012987013	1	83	1.20481927710843
MSigDB_chris_UPandDN-MGclus_FC0	Ease_cl	MSIGDB-chris-UPandDN__SCIAN_CELL_CYCLE_TARGETS_OF_TP53_AND_TP73	path:hsa04110	7.07679252808909e-17	4.14416970444897e-13	1	288	0.347222222222222	1	11	9.09090909090909	1	17	5.88235294117647	1	19	5.26315789473684
MSigDB_chris_UPandDN-MGclus_FC0	Ease	MSIGDB-chris-UPandDN__SCIAN_CELL_CYCLE_TARGETS_OF_TP53_AND_TP73	path:hsa04110	5.49382010093293e-18	1.93030863066379e-14	1	288	0.347222222222222	1	11	9.09090909090909	1	16	6.25	1	17	5.88235294117647
MSigDB_chris_UPandDN-MGclus_FC0	Fisher_cl	MSIGDB-chris-UPandDN__SCIAN_CELL_CYCLE_TARGETS_OF_TP53_AND_TP73	path:hsa04110	5.12748463221663e-19	4.50398250093909e-15	1	288	0.347222222222222	1	24	4.16666666666667	1	30	3.33333333333333	1	35	2.85714285714286
MSigDB_chris_UPandDN-MGclus_FC0	Fisher	MSIGDB-chris-UPandDN__SCIAN_CELL_CYCLE_TARGETS_OF_TP53_AND_TP73	path:hsa04110	4.52180113407001e-20	2.84122654440735e-16	1	288	0.347222222222222	1	21	4.76190476190476	1	26	3.84615384615385	1	30	3.33333333333333
MSigDB_chris_UPandDN-MGclus_FC0	CrossTalkB_cl	MSIGDB-chris-UPandDN__SETLUR_PROSTATE_CANCER_TMPRSS2_ERG_FUSION	path:hsa05215	0.000795508	0.00241247791196271	30	288	10.4166666666667	30	39	76.9230769230769	30	65	46.1538461538462	30	74	40.5405405405405
MSigDB_chris_UPandDN-MGclus_FC0	CrossTalkB	MSIGDB-chris-UPandDN__SETLUR_PROSTATE_CANCER_TMPRSS2_ERG_FUSION	path:hsa05215	0.0298181	0.106062842842681	20	288	6.94444444444444	NA	6	NA	NA	12	NA	NA	18	NA
MSigDB_chris_UPandDN-MGclus_FC0	Ease_cl	MSIGDB-chris-UPandDN__SETLUR_PROSTATE_CANCER_TMPRSS2_ERG_FUSION	path:hsa05215	1	1	NA	288	NA	NA	0	NA	NA	0	NA	NA	0	NA
MSigDB_chris_UPandDN-MGclus_FC0	Ease	MSIGDB-chris-UPandDN__SETLUR_PROSTATE_CANCER_TMPRSS2_ERG_FUSION	path:hsa05215	1	1	NA	288	NA	NA	0	NA	NA	0	NA	NA	0	NA
MSigDB_chris_UPandDN-MGclus_FC0	Fisher_cl	MSIGDB-chris-UPandDN__SETLUR_PROSTATE_CANCER_TMPRSS2_ERG_FUSION	path:hsa05215	1	1	NA	288	NA	NA	1	NA	NA	4	NA	NA	12	NA
MSigDB_chris_UPandDN-MGclus_FC0	Fisher	MSIGDB-chris-UPandDN__SETLUR_PROSTATE_CANCER_TMPRSS2_ERG_FUSION	path:hsa05215	1	1	NA	288	NA	NA	0	NA	NA	0	NA	NA	1	NA
MSigDB_chris_UPandDN-MGclus_FC0	CrossTalkB_cl	MSIGDB-chris-UPandDN__STEGMEIER_PRE-MITOTIC_CELL_CYCLE_REGULATORS	path:hsa04110	1.42036e-37	6.97007946368715e-36	1	288	0.347222222222222	1	20	5	1	21	4.76190476190476	1	24	4.16666666666667
MSigDB_chris_UPandDN-MGclus_FC0	CrossTalkB	MSIGDB-chris-UPandDN__STEGMEIER_PRE-MITOTIC_CELL_CYCLE_REGULATORS	path:hsa04110	2.1637e-15	4.95591676662321e-14	2	288	0.694444444444444	2	16	12.5	2	25	8	2	28	7.14285714285714
MSigDB_chris_UPandDN-MGclus_FC0	Ease_cl	MSIGDB-chris-UPandDN__STEGMEIER_PRE-MITOTIC_CELL_CYCLE_REGULATORS	path:hsa04110	1	1	NA	288	NA	NA	0	NA	NA	0	NA	NA	0	NA
MSigDB_chris_UPandDN-MGclus_FC0	Ease	MSIGDB-chris-UPandDN__STEGMEIER_PRE-MITOTIC_CELL_CYCLE_REGULATORS	path:hsa04110	1	1	NA	288	NA	NA	0	NA	NA	0	NA	NA	1	NA
MSigDB_chris_UPandDN-MGclus_FC0	Fisher_cl	MSIGDB-chris-UPandDN__STEGMEIER_PRE-MITOTIC_CELL_CYCLE_REGULATORS	path:hsa04110	0.0160875669621714	0.112420992995794	6	288	2.08333333333333	NA	0	NA	NA	0	NA	NA	3	NA
MSigDB_chris_UPandDN-MGclus_FC0	Fisher	MSIGDB-chris-UPandDN__STEGMEIER_PRE-MITOTIC_CELL_CYCLE_REGULATORS	path:hsa04110	0.0577435058882543	0.542067820831992	7	288	2.43055555555556	NA	1	NA	NA	1	NA	NA	1	NA
MSigDB_chris_UPandDN-MGclus_FC0	CrossTalkB_cl	MSIGDB-chris-UPandDN__TOMLINS_PROSTATE_CANCER	path:hsa05215	0.363158	0.559547425363971	207	288	71.875	NA	98	NA	NA	125	NA	NA	142	NA
MSigDB_chris_UPandDN-MGclus_FC0	CrossTalkB	MSIGDB-chris-UPandDN__TOMLINS_PROSTATE_CANCER	path:hsa05215	0.468719	0.897010980392157	193	288	67.0138888888889	NA	70	NA	NA	87	NA	NA	94	NA
MSigDB_chris_UPandDN-MGclus_FC0	Ease_cl	MSIGDB-chris-UPandDN__TOMLINS_PROSTATE_CANCER	path:hsa05215	1	1	NA	288	NA	NA	0	NA	NA	0	NA	NA	0	NA
MSigDB_chris_UPandDN-MGclus_FC0	Ease	MSIGDB-chris-UPandDN__TOMLINS_PROSTATE_CANCER	path:hsa05215	1	1	NA	288	NA	NA	0	NA	NA	2	NA	NA	3	NA
MSigDB_chris_UPandDN-MGclus_FC0	Fisher_cl	MSIGDB-chris-UPandDN__TOMLINS_PROSTATE_CANCER	path:hsa05215	1	1	NA	288	NA	NA	0	NA	NA	5	NA	NA	15	NA
MSigDB_chris_UPandDN-MGclus_FC0	Fisher	MSIGDB-chris-UPandDN__TOMLINS_PROSTATE_CANCER	path:hsa05215	1	1	NA	288	NA	NA	3	NA	NA	6	NA	NA	8	NA
MSigDB_chris_UPandDN-MGclus_FC0	CrossTalkB_cl	MSIGDB-chris-UPandDN__WALLACE_PROSTATE_CANCER_RACE	path:hsa05215	1.69957e-38	8.70496960932945e-37	29	288	10.0694444444444	29	218	13.302752293578	29	245	11.8367346938776	29	256	11.328125
MSigDB_chris_UPandDN-MGclus_FC0	CrossTalkB	MSIGDB-chris-UPandDN__WALLACE_PROSTATE_CANCER_RACE	path:hsa05215	8.19479e-09	1.08571697375566e-07	75	288	26.0416666666667	75	115	65.2173913043478	75	125	60	75	135	55.5555555555556
MSigDB_chris_UPandDN-MGclus_FC0	Ease_cl	MSIGDB-chris-UPandDN__WALLACE_PROSTATE_CANCER_RACE	path:hsa05215	0.00040833692868682	0.0343237471922012	17	288	5.90277777777778	NA	8	NA	17	18	94.4444444444444	17	23	73.9130434782609
MSigDB_chris_UPandDN-MGclus_FC0	Ease	MSIGDB-chris-UPandDN__WALLACE_PROSTATE_CANCER_RACE	path:hsa05215	0.259122833177846	1	62	288	21.5277777777778	NA	11	NA	NA	14	NA	NA	16	NA
MSigDB_chris_UPandDN-MGclus_FC0	Fisher_cl	MSIGDB-chris-UPandDN__WALLACE_PROSTATE_CANCER_RACE	path:hsa05215	3.09283001913368e-06	0.000282209788037348	16	288	5.55555555555556	16	49	32.6530612244898	16	80	20	16	103	15.5339805825243
MSigDB_chris_UPandDN-MGclus_FC0	Fisher	MSIGDB-chris-UPandDN__WALLACE_PROSTATE_CANCER_RACE	path:hsa05215	0.100743887593419	0.707345026898133	67	288	23.2638888888889	NA	15	NA	NA	21	NA	NA	26	NA
MSigDB_chris_UPandDN-MGclus_FC0	CrossTalkB_cl	MSIGDB-chris-UPandDN__WALLACE_PROSTATE_CANCER	path:hsa05215	0.119055	0.215070256041131	170	288	59.0277777777778	NA	44	NA	NA	90	NA	NA	113	NA
MSigDB_chris_UPandDN-MGclus_FC0	CrossTalkB	MSIGDB-chris-UPandDN__WALLACE_PROSTATE_CANCER	path:hsa05215	0.0237184	0.0873553147169811	73	288	25.3472222222222	NA	24	NA	NA	55	NA	73	78	93.5897435897436
MSigDB_chris_UPandDN-MGclus_FC0	Ease_cl	MSIGDB-chris-UPandDN__WALLACE_PROSTATE_CANCER	path:hsa05215	1	1	NA	288	NA	NA	0	NA	NA	0	NA	NA	0	NA
MSigDB_chris_UPandDN-MGclus_FC0	Ease	MSIGDB-chris-UPandDN__WALLACE_PROSTATE_CANCER	path:hsa05215	1	1	NA	288	NA	NA	0	NA	NA	0	NA	NA	0	NA
MSigDB_chris_UPandDN-MGclus_FC0	Fisher_cl	MSIGDB-chris-UPandDN__WALLACE_PROSTATE_CANCER	path:hsa05215	1	1	NA	288	NA	NA	1	NA	NA	3	NA	NA	21	NA
MSigDB_chris_UPandDN-MGclus_FC0	Fisher	MSIGDB-chris-UPandDN__WALLACE_PROSTATE_CANCER	path:hsa05215	1	1	NA	288	NA	NA	1	NA	NA	4	NA	NA	8	NA
MSigDB_chris_UPandDN-MGclus_FC0	CrossTalkB_cl	MSIGDB-chris-UPandDN__WANG_HCP_PROSTATE_CANCER	path:hsa05215	3.3164e-06	1.45692711177794e-05	67	288	23.2638888888889	67	118	56.7796610169492	67	148	45.2702702702703	67	167	40.1197604790419
MSigDB_chris_UPandDN-MGclus_FC0	CrossTalkB	MSIGDB-chris-UPandDN__WANG_HCP_PROSTATE_CANCER	path:hsa05215	3.05745e-08	3.75617353846154e-07	5	288	1.73611111111111	5	46	10.8695652173913	5	58	8.62068965517241	5	72	6.94444444444444
MSigDB_chris_UPandDN-MGclus_FC0	Ease_cl	MSIGDB-chris-UPandDN__WANG_HCP_PROSTATE_CANCER	path:hsa05215	1	1	NA	288	NA	NA	0	NA	NA	0	NA	NA	1	NA
MSigDB_chris_UPandDN-MGclus_FC0	Ease	MSIGDB-chris-UPandDN__WANG_HCP_PROSTATE_CANCER	path:hsa05215	0.272747892899283	1	12	288	4.16666666666667	NA	0	NA	NA	0	NA	NA	0	NA
MSigDB_chris_UPandDN-MGclus_FC0	Fisher_cl	MSIGDB-chris-UPandDN__WANG_HCP_PROSTATE_CANCER	path:hsa05215	0.0192003257723862	0.121553629970912	50	288	17.3611111111111	NA	3	NA	NA	15	NA	NA	36	NA
MSigDB_chris_UPandDN-MGclus_FC0	Fisher	MSIGDB-chris-UPandDN__WANG_HCP_PROSTATE_CANCER	path:hsa05215	0.0402693174450108	0.439410788120466	12	288	4.16666666666667	NA	0	NA	NA	1	NA	NA	4	NA
MSigDB_chris_UPandDN-MGclus_FC0	CrossTalkB_cl	MSIGDB-chris-UPandDN__WANG_PROSTATE_CANCER_ANDROGEN_INDEPENDENT	path:hsa05215	0.00634982	0.0160416505263158	134	288	46.5277777777778	NA	126	NA	134	167	80.2395209580838	134	189	70.8994708994709
MSigDB_chris_UPandDN-MGclus_FC0	CrossTalkB	MSIGDB-chris-UPandDN__WANG_PROSTATE_CANCER_ANDROGEN_INDEPENDENT	path:hsa05215	0.892253	1	244	288	84.7222222222222	NA	10	NA	NA	19	NA	NA	37	NA
MSigDB_chris_UPandDN-MGclus_FC0	Ease_cl	MSIGDB-chris-UPandDN__WANG_PROSTATE_CANCER_ANDROGEN_INDEPENDENT	path:hsa05215	1	1	NA	288	NA	NA	0	NA	NA	1	NA	NA	1	NA
MSigDB_chris_UPandDN-MGclus_FC0	Ease	MSIGDB-chris-UPandDN__WANG_PROSTATE_CANCER_ANDROGEN_INDEPENDENT	path:hsa05215	1	1	NA	288	NA	NA	0	NA	NA	0	NA	NA	0	NA
MSigDB_chris_UPandDN-MGclus_FC0	Fisher_cl	MSIGDB-chris-UPandDN__WANG_PROSTATE_CANCER_ANDROGEN_INDEPENDENT	path:hsa05215	1	1	NA	288	NA	NA	4	NA	NA	8	NA	NA	16	NA
MSigDB_chris_UPandDN-MGclus_FC0	Fisher	MSIGDB-chris-UPandDN__WANG_PROSTATE_CANCER_ANDROGEN_INDEPENDENT	path:hsa05215	1	1	NA	288	NA	NA	0	NA	NA	1	NA	NA	2	NA
MSigDB_chris_UPandDN-MGclus_FC0	CrossTalkB_cl	MSIGDB-chris-UPandDN__WINNEPENNINCKX_MELANOMA_METASTASIS	path:hsa05218	0.0454004	0.0926788551243319	63	288	21.875	NA	39	NA	NA	54	NA	63	63	100
MSigDB_chris_UPandDN-MGclus_FC0	CrossTalkB	MSIGDB-chris-UPandDN__WINNEPENNINCKX_MELANOMA_METASTASIS	path:hsa05218	0.550939	0.991283936091766	39	288	13.5416666666667	NA	24	NA	NA	26	NA	NA	26	NA
MSigDB_chris_UPandDN-MGclus_FC0	Ease_cl	MSIGDB-chris-UPandDN__WINNEPENNINCKX_MELANOMA_METASTASIS	path:hsa05218	1	1	NA	288	NA	NA	3	NA	NA	3	NA	NA	5	NA
MSigDB_chris_UPandDN-MGclus_FC0	Ease	MSIGDB-chris-UPandDN__WINNEPENNINCKX_MELANOMA_METASTASIS	path:hsa05218	1	1	NA	288	NA	NA	3	NA	NA	3	NA	NA	3	NA
MSigDB_chris_UPandDN-MGclus_FC0	Fisher_cl	MSIGDB-chris-UPandDN__WINNEPENNINCKX_MELANOMA_METASTASIS	path:hsa05218	1	1	NA	288	NA	NA	12	NA	NA	14	NA	NA	16	NA
MSigDB_chris_UPandDN-MGclus_FC0	Fisher	MSIGDB-chris-UPandDN__WINNEPENNINCKX_MELANOMA_METASTASIS	path:hsa05218	1	1	NA	288	NA	NA	3	NA	NA	6	NA	NA	7	NA
MSigDB_chris_UPandDN-MGclus_FC0	CrossTalkB_cl	MSIGDB-chris-UPandDN__WONG_ENDOMETRIAL_CANCER_LATE	path:hsa05213	1	1	NA	288	NA	NA	0	NA	NA	0	NA	NA	0	NA
MSigDB_chris_UPandDN-MGclus_FC0	CrossTalkB	MSIGDB-chris-UPandDN__WONG_ENDOMETRIAL_CANCER_LATE	path:hsa05213	0.269744	0.61466353307393	65	288	22.5694444444444	NA	16	NA	NA	21	NA	NA	23	NA
MSigDB_chris_UPandDN-MGclus_FC0	Ease_cl	MSIGDB-chris-UPandDN__WONG_ENDOMETRIAL_CANCER_LATE	path:hsa05213	1	1	NA	288	NA	NA	0	NA	NA	0	NA	NA	0	NA
MSigDB_chris_UPandDN-MGclus_FC0	Ease	MSIGDB-chris-UPandDN__WONG_ENDOMETRIAL_CANCER_LATE	path:hsa05213	1	1	NA	288	NA	NA	0	NA	NA	0	NA	NA	0	NA
MSigDB_chris_UPandDN-MGclus_FC0	Fisher_cl	MSIGDB-chris-UPandDN__WONG_ENDOMETRIAL_CANCER_LATE	path:hsa05213	1	1	NA	288	NA	NA	0	NA	NA	4	NA	NA	16	NA
MSigDB_chris_UPandDN-MGclus_FC0	Fisher	MSIGDB-chris-UPandDN__WONG_ENDOMETRIAL_CANCER_LATE	path:hsa05213	1	1	NA	288	NA	NA	0	NA	NA	0	NA	NA	0	NA
MSigDB_chris_UPandDN-MGclus_FC0	CrossTalkB_cl	MSIGDB-chris-UPandDN__WU_APOPTOSIS_BY_CDKN1A_NOT_VIA_TP53	path:hsa04210	0.947866	1	82	288	28.4722222222222	NA	19	NA	NA	23	NA	NA	24	NA
MSigDB_chris_UPandDN-MGclus_FC0	CrossTalkB	MSIGDB-chris-UPandDN__WU_APOPTOSIS_BY_CDKN1A_NOT_VIA_TP53	path:hsa04210	0.985681	1	131	288	45.4861111111111	NA	10	NA	NA	18	NA	NA	20	NA
MSigDB_chris_UPandDN-MGclus_FC0	Ease_cl	MSIGDB-chris-UPandDN__WU_APOPTOSIS_BY_CDKN1A_NOT_VIA_TP53	path:hsa04210	1	1	NA	288	NA	NA	0	NA	NA	0	NA	NA	0	NA
MSigDB_chris_UPandDN-MGclus_FC0	Ease	MSIGDB-chris-UPandDN__WU_APOPTOSIS_BY_CDKN1A_NOT_VIA_TP53	path:hsa04210	1	1	NA	288	NA	NA	0	NA	NA	0	NA	NA	0	NA
MSigDB_chris_UPandDN-MGclus_FC0	Fisher_cl	MSIGDB-chris-UPandDN__WU_APOPTOSIS_BY_CDKN1A_NOT_VIA_TP53	path:hsa04210	1	1	NA	288	NA	NA	0	NA	NA	0	NA	NA	1	NA
MSigDB_chris_UPandDN-MGclus_FC0	Fisher	MSIGDB-chris-UPandDN__WU_APOPTOSIS_BY_CDKN1A_NOT_VIA_TP53	path:hsa04210	1	1	NA	288	NA	NA	0	NA	NA	0	NA	NA	0	NA
MSigDB_chris_UPandDN-MGclus_FC0	CrossTalkB_cl	MSIGDB-chris-UPandDN__WU_APOPTOSIS_BY_CDKN1A_VIA_TP53	path:hsa04210	0.00384968	0.0101731615884477	36	288	12.5	NA	35	NA	36	45	80	36	51	70.5882352941177
MSigDB_chris_UPandDN-MGclus_FC0	CrossTalkB	MSIGDB-chris-UPandDN__WU_APOPTOSIS_BY_CDKN1A_VIA_TP53	path:hsa04210	0.158541	0.410198569661267	53	288	18.4027777777778	NA	33	NA	NA	37	NA	NA	41	NA
MSigDB_chris_UPandDN-MGclus_FC0	Ease_cl	MSIGDB-chris-UPandDN__WU_APOPTOSIS_BY_CDKN1A_VIA_TP53	path:hsa04210	1	1	NA	288	NA	NA	1	NA	NA	3	NA	NA	3	NA
MSigDB_chris_UPandDN-MGclus_FC0	Ease	MSIGDB-chris-UPandDN__WU_APOPTOSIS_BY_CDKN1A_VIA_TP53	path:hsa04210	1	1	NA	288	NA	NA	1	NA	NA	3	NA	NA	4	NA
MSigDB_chris_UPandDN-MGclus_FC0	Fisher_cl	MSIGDB-chris-UPandDN__WU_APOPTOSIS_BY_CDKN1A_VIA_TP53	path:hsa04210	0.0258854716262396	0.141053339184174	13	288	4.51388888888889	NA	5	NA	NA	6	NA	NA	8	NA
MSigDB_chris_UPandDN-MGclus_FC0	Fisher	MSIGDB-chris-UPandDN__WU_APOPTOSIS_BY_CDKN1A_VIA_TP53	path:hsa04210	0.129524719297351	0.784922479688121	25	288	8.68055555555556	NA	5	NA	NA	5	NA	NA	5	NA
MSigDB_chris_UPandDN-MGclus_FC0	CrossTalkB_cl	MSIGDB-chris-UPandDN__WU_SILENCED_BY_METHYLATION_IN_BLADDER_CANCER	path:hsa05219	0.0269988	0.0584059744366457	138	288	47.9166666666667	NA	109	NA	NA	134	NA	138	150	92
MSigDB_chris_UPandDN-MGclus_FC0	CrossTalkB	MSIGDB-chris-UPandDN__WU_SILENCED_BY_METHYLATION_IN_BLADDER_CANCER	path:hsa05219	0.00532681	0.0245491600419727	103	288	35.7638888888889	NA	95	NA	103	112	91.9642857142857	103	118	87.2881355932203
MSigDB_chris_UPandDN-MGclus_FC0	Ease_cl	MSIGDB-chris-UPandDN__WU_SILENCED_BY_METHYLATION_IN_BLADDER_CANCER	path:hsa05219	1	1	NA	288	NA	NA	1	NA	NA	3	NA	NA	3	NA
MSigDB_chris_UPandDN-MGclus_FC0	Ease	MSIGDB-chris-UPandDN__WU_SILENCED_BY_METHYLATION_IN_BLADDER_CANCER	path:hsa05219	1	1	NA	288	NA	NA	0	NA	NA	1	NA	NA	1	NA
MSigDB_chris_UPandDN-MGclus_FC0	Fisher_cl	MSIGDB-chris-UPandDN__WU_SILENCED_BY_METHYLATION_IN_BLADDER_CANCER	path:hsa05219	1	1	NA	288	NA	NA	6	NA	NA	8	NA	NA	15	NA
MSigDB_chris_UPandDN-MGclus_FC0	Fisher	MSIGDB-chris-UPandDN__WU_SILENCED_BY_METHYLATION_IN_BLADDER_CANCER	path:hsa05219	1	1	NA	288	NA	NA	1	NA	NA	5	NA	NA	6	NA
MSigDB_chris_UPandDN-MGclus_FC0	CrossTalkB_cl	MSIGDB-chris-UPandDN__YEGNASUBRAMANIAN_PROSTATE_CANCER	path:hsa05215	0.526402	0.763022304950495	229	288	79.5138888888889	NA	81	NA	NA	110	NA	NA	122	NA
MSigDB_chris_UPandDN-MGclus_FC0	CrossTalkB	MSIGDB-chris-UPandDN__YEGNASUBRAMANIAN_PROSTATE_CANCER	path:hsa05215	0.977694	1	181	288	62.8472222222222	NA	20	NA	NA	25	NA	NA	33	NA
MSigDB_chris_UPandDN-MGclus_FC0	Ease_cl	MSIGDB-chris-UPandDN__YEGNASUBRAMANIAN_PROSTATE_CANCER	path:hsa05215	1	1	NA	288	NA	NA	1	NA	NA	5	NA	NA	5	NA
MSigDB_chris_UPandDN-MGclus_FC0	Ease	MSIGDB-chris-UPandDN__YEGNASUBRAMANIAN_PROSTATE_CANCER	path:hsa05215	1	1	NA	288	NA	NA	0	NA	NA	0	NA	NA	1	NA
MSigDB_chris_UPandDN-MGclus_FC0	Fisher_cl	MSIGDB-chris-UPandDN__YEGNASUBRAMANIAN_PROSTATE_CANCER	path:hsa05215	1	1	NA	288	NA	NA	17	NA	NA	20	NA	NA	25	NA
MSigDB_chris_UPandDN-MGclus_FC0	Fisher	MSIGDB-chris-UPandDN__YEGNASUBRAMANIAN_PROSTATE_CANCER	path:hsa05215	0.459187000275804	1	65	288	22.5694444444444	NA	2	NA	NA	4	NA	NA	4	NA
