name	tool	color	clus
Padog	Padog	#C67BFF	none
BinoX	BinoX	#F8766C	none
Ease	Ease	#7BAD00	none
Fisher	Fisher	#00BEC4	none
BinoX-MCL	BinoX	#F8766C	MCL
Ease-MCL	Ease	#7BAD00	MCL
Fisher-MCL	Fisher	#00BEC4	MCL
BinoX-MGC	BinoX	#F8766C	MGC
Ease-MGC	Ease	#7BAD00	MGC
Fisher-MGC	Fisher	#00BEC4	MGC
