prefix	tool	experimentName	targetGeneSet	pVal	adjPVal	absRank	nTargets	rankPerc	absRank_0.01	nTargets_0.01	rankPerc_0.01	absRank_0.05	nTargets_0.05	rankPerc_0.05	absRank_0.1	nTargets_0.1	rankPerc_0.1
qvalcut0_01foldchc1_5minfrac0_01abslmax600	BinoX	GSE1145	path:hsa05414	0.000330918	0.0011541285440149	84	288	29.1666666666667	84	101	83.1683168316832	84	110	76.3636363636364	84	117	71.7948717948718
qvalcut0_01foldchc1_5minfrac0_01abslmax600	Ease	GSE1145	path:hsa05414	0.417976245901668	1	107	288	37.1527777777778	NA	0	NA	NA	1	NA	NA	4	NA
qvalcut0_01foldchc1_5minfrac0_01abslmax600	Fisher	GSE1145	path:hsa05414	0.208365704711633	0.741207789492023	113	288	39.2361111111111	NA	1	NA	NA	7	NA	NA	14	NA
qvalcut0_01foldchc1_5minfrac0_01abslmax600	BinoX	GSE14762	path:hsa05211	6.33592e-05	0.000248134774895397	144	288	50	144	170	84.7058823529412	144	190	75.7894736842105	144	196	73.469387755102
qvalcut0_01foldchc1_5minfrac0_01abslmax600	Ease	GSE14762	path:hsa05211	0.247409914663433	1	94	288	32.6388888888889	NA	10	NA	NA	16	NA	NA	20	NA
qvalcut0_01foldchc1_5minfrac0_01abslmax600	Fisher	GSE14762	path:hsa05211	0.0935965337238894	0.513515005447866	95	288	32.9861111111111	NA	16	NA	NA	26	NA	NA	35	NA
qvalcut0_01foldchc1_5minfrac0_01abslmax600	BinoX	GSE14924_CD4	path:hsa05221	0.00058367	0.00196427908314607	46	288	15.9722222222222	46	65	70.7692307692308	46	79	58.2278481012658	46	85	54.1176470588235
qvalcut0_01foldchc1_5minfrac0_01abslmax600	Ease	GSE14924_CD4	path:hsa05221	0.00361108273123251	0.141569568018163	10	288	3.47222222222222	NA	0	NA	NA	4	NA	NA	6	NA
qvalcut0_01foldchc1_5minfrac0_01abslmax600	Fisher	GSE14924_CD4	path:hsa05221	0.000677707453627623	0.0286704712585516	9	288	3.125	NA	3	NA	9	13	69.2307692307692	9	17	52.9411764705882
qvalcut0_01foldchc1_5minfrac0_01abslmax600	BinoX	GSE14924_CD8	path:hsa05221	0.00666827	0.0187502838002253	92	288	31.9444444444444	NA	85	NA	92	106	86.7924528301887	92	120	76.6666666666667
qvalcut0_01foldchc1_5minfrac0_01abslmax600	Ease	GSE14924_CD8	path:hsa05221	0.0612964384941853	0.731707752262172	16	288	5.55555555555556	NA	0	NA	NA	2	NA	NA	4	NA
qvalcut0_01foldchc1_5minfrac0_01abslmax600	Fisher	GSE14924_CD8	path:hsa05221	0.0163243349767125	0.211459856671087	12	288	4.16666666666667	NA	1	NA	NA	5	NA	NA	6	NA
qvalcut0_01foldchc1_5minfrac0_01abslmax600	BinoX	GSE15471	path:hsa05212	6.10836e-05	0.000239850024541164	104	288	36.1111111111111	104	143	72.7272727272727	104	160	65	104	163	63.8036809815951
qvalcut0_01foldchc1_5minfrac0_01abslmax600	Ease	GSE15471	path:hsa05212	0.825721004618219	1	101	288	35.0694444444444	NA	7	NA	NA	10	NA	NA	12	NA
qvalcut0_01foldchc1_5minfrac0_01abslmax600	Fisher	GSE15471	path:hsa05212	0.516723994673355	1	103	288	35.7638888888889	NA	10	NA	NA	15	NA	NA	18	NA
qvalcut0_01foldchc1_5minfrac0_01abslmax600	BinoX	GSE16515	path:hsa05212	5.13429e-17	7.7199926746988e-16	64	288	22.2222222222222	64	177	36.1581920903955	64	191	33.5078534031414	64	196	32.6530612244898
qvalcut0_01foldchc1_5minfrac0_01abslmax600	Ease	GSE16515	path:hsa05212	0.0935965337238894	0.881022418261588	37	288	12.8472222222222	NA	6	NA	NA	6	NA	NA	7	NA
qvalcut0_01foldchc1_5minfrac0_01abslmax600	Fisher	GSE16515	path:hsa05212	0.0288517594545145	0.278055435970337	35	288	12.1527777777778	NA	6	NA	NA	9	NA	NA	18	NA
qvalcut0_01foldchc1_5minfrac0_01abslmax600	BinoX	GSE18842	path:hsa05223	0.00119804	0.00382229378781423	31	288	10.7638888888889	31	33	93.9393939393939	31	39	79.4871794871795	31	42	73.8095238095238
qvalcut0_01foldchc1_5minfrac0_01abslmax600	Ease	GSE18842	path:hsa05223	1	1	NA	288	NA	NA	1	NA	NA	3	NA	NA	4	NA
qvalcut0_01foldchc1_5minfrac0_01abslmax600	Fisher	GSE18842	path:hsa05223	1	1	NA	288	NA	NA	3	NA	NA	6	NA	NA	11	NA
qvalcut0_01foldchc1_5minfrac0_01abslmax600	BinoX	GSE19188	path:hsa05223	5.83207e-06	2.67261567686659e-05	31	288	10.7638888888889	31	54	57.4074074074074	31	71	43.6619718309859	31	80	38.75
qvalcut0_01foldchc1_5minfrac0_01abslmax600	Ease	GSE19188	path:hsa05223	1	1	NA	288	NA	NA	2	NA	NA	3	NA	NA	6	NA
qvalcut0_01foldchc1_5minfrac0_01abslmax600	Fisher	GSE19188	path:hsa05223	1	1	NA	288	NA	NA	3	NA	NA	9	NA	NA	11	NA
qvalcut0_01foldchc1_5minfrac0_01abslmax600	BinoX	GSE19728	path:hsa05214	2.23344e-12	2.10895318032787e-11	50	288	17.3611111111111	50	127	39.3700787401575	50	133	37.593984962406	50	138	36.231884057971
qvalcut0_01foldchc1_5minfrac0_01abslmax600	Ease	GSE19728	path:hsa05214	0.00690501411216462	0.219087905389359	31	288	10.7638888888889	NA	2	NA	NA	12	NA	NA	18	NA
qvalcut0_01foldchc1_5minfrac0_01abslmax600	Fisher	GSE19728	path:hsa05214	0.00149217934270354	0.0484688103360485	31	288	10.7638888888889	NA	11	NA	31	31	100	31	40	77.5
qvalcut0_01foldchc1_5minfrac0_01abslmax600	BinoX	GSE21354	path:hsa05214	1.61465e-14	1.89803755102041e-13	34	288	11.8055555555556	34	121	28.099173553719	34	126	26.984126984127	34	132	25.7575757575758
qvalcut0_01foldchc1_5minfrac0_01abslmax600	Ease	GSE21354	path:hsa05214	0.0896726080105938	0.86753034726528	38	288	13.1944444444444	NA	1	NA	NA	2	NA	NA	4	NA
qvalcut0_01foldchc1_5minfrac0_01abslmax600	Fisher	GSE21354	path:hsa05214	0.0272290715213294	0.269341198879412	36	288	12.5	NA	2	NA	NA	5	NA	NA	13	NA
qvalcut0_01foldchc1_5minfrac0_01abslmax600	BinoX	GSE23878	path:hsa05210	0.0134264	0.0355505244695898	32	288	11.1111111111111	NA	27	NA	32	35	91.4285714285714	32	41	78.0487804878049
qvalcut0_01foldchc1_5minfrac0_01abslmax600	Ease	GSE23878	path:hsa05210	0.483546821523606	1	78	288	27.0833333333333	NA	0	NA	NA	0	NA	NA	0	NA
qvalcut0_01foldchc1_5minfrac0_01abslmax600	Fisher	GSE23878	path:hsa05210	0.219661124578029	0.754851996714218	75	288	26.0416666666667	NA	0	NA	NA	3	NA	NA	4	NA
qvalcut0_01foldchc1_5minfrac0_01abslmax600	BinoX	GSE24739_G0	path:hsa05220	0.138066	0.289590534453782	57	288	19.7916666666667	NA	24	NA	NA	30	NA	NA	37	NA
qvalcut0_01foldchc1_5minfrac0_01abslmax600	Ease	GSE24739_G0	path:hsa05220	0.600719430570983	1	41	288	14.2361111111111	NA	0	NA	NA	0	NA	NA	0	NA
qvalcut0_01foldchc1_5minfrac0_01abslmax600	Fisher	GSE24739_G0	path:hsa05220	0.231242498893613	0.776619481832836	51	288	17.7083333333333	NA	0	NA	NA	0	NA	NA	0	NA
qvalcut0_01foldchc1_5minfrac0_01abslmax600	BinoX	GSE24739_G1	path:hsa05220	0.0010012	0.00323704041450777	41	288	14.2361111111111	41	55	74.5454545454545	41	79	51.8987341772152	41	92	44.5652173913043
qvalcut0_01foldchc1_5minfrac0_01abslmax600	Ease	GSE24739_G1	path:hsa05220	0.127415380344689	1	6	288	2.08333333333333	NA	0	NA	NA	0	NA	NA	0	NA
qvalcut0_01foldchc1_5minfrac0_01abslmax600	Fisher	GSE24739_G1	path:hsa05220	0.0241945270868287	0.261320032734728	7	288	2.43055555555556	NA	0	NA	NA	0	NA	NA	1	NA
qvalcut0_01foldchc1_5minfrac0_01abslmax600	BinoX	GSE32676	path:hsa05212	9.23216e-08	5.1705620104712e-07	51	288	17.7083333333333	51	105	48.5714285714286	51	121	42.1487603305785	51	131	38.9312977099237
qvalcut0_01foldchc1_5minfrac0_01abslmax600	Ease	GSE32676	path:hsa05212	0.000450700595182571	0.0380254906396007	9	288	3.125	NA	6	NA	9	9	100	9	13	69.2307692307692
qvalcut0_01foldchc1_5minfrac0_01abslmax600	Fisher	GSE32676	path:hsa05212	5.64906710711421e-05	0.0056169784594813	8	288	2.77777777777778	8	11	72.7272727272727	8	19	42.1052631578947	8	22	36.3636363636364
qvalcut0_01foldchc1_5minfrac0_01abslmax600	BinoX	GSE3467	path:hsa05216	0.000119744	0.000449670547642929	162	288	56.25	162	187	86.6310160427808	162	207	78.2608695652174	162	213	76.056338028169
qvalcut0_01foldchc1_5minfrac0_01abslmax600	Ease	GSE3467	path:hsa05216	1	1	NA	288	NA	NA	0	NA	NA	1	NA	NA	3	NA
qvalcut0_01foldchc1_5minfrac0_01abslmax600	Fisher	GSE3467	path:hsa05216	0.535613303989295	1	161	288	55.9027777777778	NA	1	NA	NA	6	NA	NA	8	NA
qvalcut0_01foldchc1_5minfrac0_01abslmax600	BinoX	GSE3585	path:hsa05414	1.57199e-09	1.09193516883117e-08	5	288	1.73611111111111	5	71	7.04225352112676	5	90	5.55555555555556	5	101	4.95049504950495
qvalcut0_01foldchc1_5minfrac0_01abslmax600	Ease	GSE3585	path:hsa05414	1	1	NA	288	NA	NA	0	NA	NA	0	NA	NA	1	NA
qvalcut0_01foldchc1_5minfrac0_01abslmax600	Fisher	GSE3585	path:hsa05414	0.24627618907436	0.801299931228281	72	288	25	NA	1	NA	NA	1	NA	NA	2	NA
qvalcut0_01foldchc1_5minfrac0_01abslmax600	BinoX	GSE3678	path:hsa05216	9.86076e-08	5.49572957142857e-07	116	288	40.2777777777778	116	169	68.6390532544379	116	189	61.3756613756614	116	201	57.7114427860697
qvalcut0_01foldchc1_5minfrac0_01abslmax600	Ease	GSE3678	path:hsa05216	0.159658371961975	1	47	288	16.3194444444444	NA	1	NA	NA	1	NA	NA	3	NA
qvalcut0_01foldchc1_5minfrac0_01abslmax600	Fisher	GSE3678	path:hsa05216	0.0338677093806977	0.301906437907934	34	288	11.8055555555556	NA	1	NA	NA	6	NA	NA	11	NA
qvalcut0_01foldchc1_5minfrac0_01abslmax600	BinoX	GSE4107	path:hsa05210	2.36494e-08	1.42124163081862e-07	143	288	49.6527777777778	143	194	73.7113402061856	143	209	68.4210526315789	143	213	67.1361502347418
qvalcut0_01foldchc1_5minfrac0_01abslmax600	Ease	GSE4107	path:hsa05210	0.483546821523606	1	100	288	34.7222222222222	NA	1	NA	NA	4	NA	NA	5	NA
qvalcut0_01foldchc1_5minfrac0_01abslmax600	Fisher	GSE4107	path:hsa05210	0.219661124578029	0.754851996714218	101	288	35.0694444444444	NA	4	NA	NA	9	NA	NA	16	NA
qvalcut0_01foldchc1_5minfrac0_01abslmax600	BinoX	GSE4183	path:hsa05210	0.0219599	0.0557976692229386	143	288	49.6527777777778	NA	111	NA	NA	139	NA	143	156	91.6666666666667
qvalcut0_01foldchc1_5minfrac0_01abslmax600	Ease	GSE4183	path:hsa05210	0.0972457332953243	0.896753175741162	31	288	10.7638888888889	NA	5	NA	NA	8	NA	NA	10	NA
qvalcut0_01foldchc1_5minfrac0_01abslmax600	Fisher	GSE4183	path:hsa05210	0.0157362516670273	0.209294942242807	27	288	9.375	NA	10	NA	NA	16	NA	NA	19	NA
qvalcut0_01foldchc1_5minfrac0_01abslmax600	BinoX	GSE5281_EC	path:hsa05010	3.0526e-62	4.96910191304348e-60	3	288	1.04166666666667	3	83	3.6144578313253	3	100	3	3	111	2.7027027027027
qvalcut0_01foldchc1_5minfrac0_01abslmax600	Ease	GSE5281_EC	path:hsa05010	0.000483019858280732	0.0393136162913709	6	288	2.08333333333333	NA	2	NA	6	6	100	6	9	66.6666666666667
qvalcut0_01foldchc1_5minfrac0_01abslmax600	Fisher	GSE5281_EC	path:hsa05010	0.000137253869558365	0.00960520537619661	7	288	2.43055555555556	7	7	100	7	15	46.6666666666667	7	21	33.3333333333333
qvalcut0_01foldchc1_5minfrac0_01abslmax600	BinoX	GSE5281_HIP	path:hsa05010	0.0273577	0.0681938940079893	132	288	45.8333333333333	NA	112	NA	NA	125	NA	132	136	97.0588235294118
qvalcut0_01foldchc1_5minfrac0_01abslmax600	Ease	GSE5281_HIP	path:hsa05010	0.150820513939237	1	61	288	21.1805555555556	NA	3	NA	NA	3	NA	NA	4	NA
qvalcut0_01foldchc1_5minfrac0_01abslmax600	Fisher	GSE5281_HIP	path:hsa05010	0.0738364550220791	0.46366557502098	64	288	22.2222222222222	NA	3	NA	NA	7	NA	NA	13	NA
qvalcut0_01foldchc1_5minfrac0_01abslmax600	BinoX	GSE5281_VCX	path:hsa05010	0.179668	0.36302050296816	131	288	45.4861111111111	NA	66	NA	NA	91	NA	NA	105	NA
qvalcut0_01foldchc1_5minfrac0_01abslmax600	Ease	GSE5281_VCX	path:hsa05010	0.417687115503634	1	22	288	7.63888888888889	NA	0	NA	NA	0	NA	NA	0	NA
qvalcut0_01foldchc1_5minfrac0_01abslmax600	Fisher	GSE5281_VCX	path:hsa05010	0.17128911872765	0.685374080859643	33	288	11.4583333333333	NA	0	NA	NA	0	NA	NA	0	NA
qvalcut0_01foldchc1_5minfrac0_01abslmax600	BinoX	GSE7305	path:hsa05213	0.00959221	0.026052400609358	72	288	25	NA	55	NA	72	78	92.3076923076923	72	86	83.7209302325581
qvalcut0_01foldchc1_5minfrac0_01abslmax600	Ease	GSE7305	path:hsa05213	1	1	NA	288	NA	NA	0	NA	NA	0	NA	NA	1	NA
qvalcut0_01foldchc1_5minfrac0_01abslmax600	Fisher	GSE7305	path:hsa05213	0.747432303752585	1	195	288	67.7083333333333	NA	0	NA	NA	2	NA	NA	4	NA
qvalcut0_01foldchc1_5minfrac0_01abslmax600	BinoX	GSE8671	path:hsa05210	0.253322	0.486253559600103	48	288	16.6666666666667	NA	30	NA	NA	32	NA	NA	37	NA
qvalcut0_01foldchc1_5minfrac0_01abslmax600	Ease	GSE8671	path:hsa05210	0.483546821523606	1	82	288	28.4722222222222	NA	5	NA	NA	6	NA	NA	7	NA
qvalcut0_01foldchc1_5minfrac0_01abslmax600	Fisher	GSE8671	path:hsa05210	0.219661124578029	0.754851996714218	86	288	29.8611111111111	NA	6	NA	NA	9	NA	NA	12	NA
qvalcut0_01foldchc1_5minfrac0_01abslmax600	BinoX	GSE9348	path:hsa05210	0.26182	0.499874594594595	55	288	19.0972222222222	NA	22	NA	NA	29	NA	NA	35	NA
qvalcut0_01foldchc1_5minfrac0_01abslmax600	Ease	GSE9348	path:hsa05210	0.0227142672211791	0.434467042289624	17	288	5.90277777777778	NA	2	NA	NA	2	NA	NA	6	NA
qvalcut0_01foldchc1_5minfrac0_01abslmax600	Fisher	GSE9348	path:hsa05210	0.00548560764225679	0.112537616507449	15	288	5.20833333333333	NA	5	NA	NA	10	NA	NA	14	NA
qvalcut0_01foldchc1_5minfrac0_01abslmax600	BinoX	GSE9476	path:hsa05221	1.0287e-09	7.3291204567079e-09	61	288	21.1805555555556	61	141	43.2624113475177	61	152	40.1315789473684	61	162	37.6543209876543
qvalcut0_01foldchc1_5minfrac0_01abslmax600	Ease	GSE9476	path:hsa05221	0.000677707453627623	0.0498820509168222	3	288	1.04166666666667	NA	1	NA	3	3	100	3	6	50
qvalcut0_01foldchc1_5minfrac0_01abslmax600	Fisher	GSE9476	path:hsa05221	0.000109707001983246	0.00846892815309841	3	288	1.04166666666667	3	3	100	3	7	42.8571428571429	3	12	25
