<?xml version="1.0" encoding="UTF-8" standalone="no"?>
<!-- Created with Inkscape (http://www.inkscape.org/) -->

<svg
   xmlns:dc="http://purl.org/dc/elements/1.1/"
   xmlns:cc="http://creativecommons.org/ns#"
   xmlns:rdf="http://www.w3.org/1999/02/22-rdf-syntax-ns#"
   xmlns:svg="http://www.w3.org/2000/svg"
   xmlns="http://www.w3.org/2000/svg"
   xmlns:sodipodi="http://sodipodi.sourceforge.net/DTD/sodipodi-0.dtd"
   xmlns:inkscape="http://www.inkscape.org/namespaces/inkscape"
   width="210mm"
   height="297mm"
   viewBox="0 0 744.09448819 1052.3622047"
   id="svg2"
   version="1.1"
   inkscape:version="0.91 r13725"
   sodipodi:docname="ORAvsCA.svg">
  <defs
     id="defs4" />
  <sodipodi:namedview
     id="base"
     pagecolor="#ffffff"
     bordercolor="#666666"
     borderopacity="1.0"
     inkscape:pageopacity="0.0"
     inkscape:pageshadow="2"
     inkscape:zoom="0.7"
     inkscape:cx="77.440566"
     inkscape:cy="42.598007"
     inkscape:document-units="px"
     inkscape:current-layer="layer1"
     showgrid="true"
     showborder="false"
     showguides="true"
     inkscape:guide-bbox="true"
     inkscape:snap-grids="false"
     inkscape:snap-to-guides="false"
     inkscape:snap-bbox="true"
     inkscape:snap-bbox-midpoints="true"
     inkscape:snap-nodes="false"
     inkscape:snap-global="true"
     inkscape:snap-others="false"
     inkscape:window-width="1920"
     inkscape:window-height="1031"
     inkscape:window-x="1366"
     inkscape:window-y="0"
     inkscape:window-maximized="1">
    <sodipodi:guide
       position="0,0"
       orientation="1,0"
       id="guide3336" />
    <inkscape:grid
       type="xygrid"
       id="grid3338" />
    <sodipodi:guide
       position="0,0"
       orientation="0,1"
       id="guide3340" />
  </sodipodi:namedview>
  <metadata
     id="metadata7">
    <rdf:RDF>
      <cc:Work
         rdf:about="">
        <dc:format>image/svg+xml</dc:format>
        <dc:type
           rdf:resource="http://purl.org/dc/dcmitype/StillImage" />
        <dc:title></dc:title>
      </cc:Work>
    </rdf:RDF>
  </metadata>
  <g
     inkscape:label="Layer 1"
     inkscape:groupmode="layer"
     id="layer1">
    <circle
       style="fill:#23373b;fill-opacity:1"
       id="path4142"
       cx="-626.58978"
       cy="1001.897"
       r="25" />
    <circle
       r="25"
       cy="929.18964"
       cx="-530.40112"
       id="circle4144"
       style="fill:#e93941;fill-opacity:1" />
    <circle
       style="fill:#23373b;fill-opacity:1"
       id="circle4146"
       cx="-564.0705"
       cy="1057.9098"
       r="25" />
    <circle
       r="25"
       cy="825.14392"
       cx="-600.10168"
       id="circle4148"
       style="fill:#23373b;fill-opacity:1" />
    <circle
       style="fill:#e93941;fill-opacity:1"
       id="circle4150"
       cx="-475.85291"
       cy="1001.9206"
       r="25" />
    <circle
       r="25"
       cy="847.36725"
       cx="-500.09656"
       id="circle4152"
       style="fill:#e93941;fill-opacity:1" />
    <circle
       style="fill:#23373b;fill-opacity:1"
       id="circle4154"
       cx="-320.5766"
       cy="735.43103"
       r="25" />
    <circle
       r="25"
       cy="875.65155"
       cx="-408.1727"
       id="circle4156"
       style="fill:#e93941;fill-opacity:1" />
    <circle
       style="fill:#23373b;fill-opacity:1"
       id="circle4158"
       cx="-241.49753"
       cy="914.03741"
       r="25" />
    <circle
       style="fill:#e93941;fill-opacity:1"
       id="circle4160"
       cx="-363.31989"
       cy="1022.0222"
       r="25" />
    <circle
       r="25"
       cy="770.5957"
       cx="-125.32999"
       id="circle4162"
       style="fill:#23373b;fill-opacity:1" />
    <circle
       style="fill:#23373b;fill-opacity:1"
       id="circle4164"
       cx="-190.30894"
       cy="842.17303"
       r="25" />
    <circle
       r="25"
       cy="969.59576"
       cx="-153.61426"
       id="circle4166"
       style="fill:#23373b;fill-opacity:1" />
    <circle
       r="25"
       cy="929.9967"
       cx="-347.43228"
       id="circle4168"
       style="fill:#e93941;fill-opacity:1" />
    <flowRoot
       xml:space="preserve"
       id="flowRoot4241"
       style="font-style:normal;font-weight:normal;font-size:50px;line-height:125%;font-family:sans-serif;text-align:center;letter-spacing:0px;word-spacing:0px;text-anchor:middle;fill:#000000;fill-opacity:1;stroke:none;stroke-width:1px;stroke-linecap:butt;stroke-linejoin:miter;stroke-opacity:1"
       transform="translate(-68.3807,564.06612)"><flowRegion
         id="flowRegion4243"><rect
           id="rect4245"
           width="383.66214"
           height="182.51566"
           x="-642.45703"
           y="635.16919"
           style="font-size:50px;text-align:center;text-anchor:middle" /></flowRegion><flowPara
         id="flowPara4247">Gene </flowPara><flowPara
         id="flowPara4448">Set A</flowPara></flowRoot>    <flowRoot
       xml:space="preserve"
       id="flowRoot4259"
       style="fill:black;stroke:none;stroke-opacity:1;stroke-width:1px;stroke-linejoin:miter;stroke-linecap:butt;fill-opacity:1;font-family:sans-serif;font-style:normal;font-weight:normal;font-size:15px;line-height:125%;letter-spacing:0px;word-spacing:0px"><flowRegion
         id="flowRegion4261"><rect
           id="rect4263"
           width="444.46713"
           height="110.10663"
           x="-580.83771"
           y="551.32654" /></flowRegion><flowPara
         id="flowPara4265" /></flowRoot>    <flowRoot
       xml:space="preserve"
       id="flowRoot4267"
       style="font-style:normal;font-weight:normal;font-size:62.5px;line-height:125%;font-family:sans-serif;letter-spacing:0px;word-spacing:0px;fill:#000000;fill-opacity:1;stroke:none;stroke-width:1px;stroke-linecap:butt;stroke-linejoin:miter;stroke-opacity:1"
       transform="translate(-48.09498,-147.42992)"><flowRegion
         id="flowRegion4269"><rect
           id="rect4271"
           width="644.34821"
           height="93.669334"
           x="-642.45703"
           y="635.16919"
           style="font-size:62.5px" /></flowRegion><flowPara
         id="flowPara4275">Significant overlap</flowPara></flowRoot>    <circle
       r="25"
       cy="913.02716"
       cx="102.31964"
       id="circle4279"
       style="fill:#23373b;fill-opacity:1" />
    <circle
       style="fill:#23373b;fill-opacity:1"
       id="circle4281"
       cx="188.17027"
       cy="910.61823"
       r="25" />
    <circle
       r="25"
       cy="1015.0526"
       cx="148.78662"
       id="circle4283"
       style="fill:#23373b;fill-opacity:1" />
    <circle
       style="fill:#23373b;fill-opacity:1"
       id="circle4285"
       cx="159.89832"
       cy="825.14392"
       r="25" />
    <circle
       r="25"
       cy="1001.9206"
       cx="284.14706"
       id="circle4287"
       style="fill:#23373b;fill-opacity:1" />
    <circle
       style="fill:#23373b;fill-opacity:1"
       id="circle4289"
       cx="259.90341"
       cy="847.36725"
       r="25" />
    <circle
       r="25"
       cy="790.5462"
       cx="458.90344"
       id="circle4291"
       style="fill:#23373b;fill-opacity:1" />
    <circle
       style="fill:#23373b;fill-opacity:1"
       id="circle4293"
       cx="351.8273"
       cy="875.65155"
       r="25" />
    <circle
       r="25"
       cy="914.03741"
       cx="518.50244"
       id="circle4295"
       style="fill:#23373b;fill-opacity:1" />
    <circle
       r="25"
       cy="1012.0222"
       cx="436.68011"
       id="circle4297"
       style="fill:#23373b;fill-opacity:1" />
    <circle
       style="fill:#23373b;fill-opacity:1"
       id="circle4299"
       cx="634.67004"
       cy="770.5957"
       r="25" />
    <circle
       r="25"
       cy="856.45868"
       cx="622.54822"
       id="circle4301"
       style="fill:#23373b;fill-opacity:1" />
    <circle
       style="fill:#23373b;fill-opacity:1"
       id="circle4303"
       cx="606.38574"
       cy="969.59576"
       r="25" />
    <circle
       style="fill:#23373b;fill-opacity:1"
       id="circle4305"
       cx="439.71057"
       cy="909.9967"
       r="25" />
    <flowRoot
       transform="translate(211.6193,564.06612)"
       style="font-style:normal;font-weight:normal;font-size:50px;line-height:125%;font-family:sans-serif;text-align:center;letter-spacing:0px;word-spacing:0px;text-anchor:middle;fill:#000000;fill-opacity:1;stroke:none;stroke-width:1px;stroke-linecap:butt;stroke-linejoin:miter;stroke-opacity:1"
       id="flowRoot4450"
       xml:space="preserve"><flowRegion
         id="flowRegion4452"><rect
           style="font-size:50px;text-align:center;text-anchor:middle"
           y="635.16919"
           x="-642.45703"
           height="182.51566"
           width="383.66214"
           id="rect4454" /></flowRegion><flowPara
         id="flowPara4456">Gene </flowPara><flowPara
         id="flowPara4458">Set B</flowPara></flowRoot>    <flowRoot
       transform="translate(718.19073,-147.42992)"
       style="font-style:normal;font-weight:normal;font-size:62.5px;line-height:125%;font-family:sans-serif;letter-spacing:0px;word-spacing:0px;fill:#000000;fill-opacity:1;stroke:none;stroke-width:1px;stroke-linecap:butt;stroke-linejoin:miter;stroke-opacity:1"
       id="flowRoot4480"
       xml:space="preserve"><flowRegion
         id="flowRegion4482"><rect
           style="font-size:62.5px"
           y="635.16919"
           x="-642.45703"
           height="93.669312"
           width="747.20532"
           id="rect4484" /></flowRegion><flowPara
         id="flowPara4486">Significant crosstalk</flowPara></flowRoot>    <circle
       style="fill:#b3b3b3;fill-opacity:1"
       id="circle4488"
       cx="-548.17273"
       cy="695.65155"
       r="25" />
    <circle
       r="25"
       cy="755.65155"
       cx="-668.17273"
       id="circle4490"
       style="fill:#b3b3b3;fill-opacity:1" />
    <circle
       style="fill:#b3b3b3;fill-opacity:1"
       id="circle4492"
       cx="-176.74417"
       cy="651.36578"
       r="25" />
    <circle
       r="25"
       cy="1155.6516"
       cx="-188.17273"
       id="circle4494"
       style="fill:#b3b3b3;fill-opacity:1" />
    <circle
       style="fill:#b3b3b3;fill-opacity:1"
       id="circle4496"
       cx="-365.31558"
       cy="1159.9374"
       r="25" />
    <circle
       r="25"
       cy="604.22296"
       cx="-281.02988"
       id="circle4498"
       style="fill:#b3b3b3;fill-opacity:1" />
    <circle
       style="fill:#b3b3b3;fill-opacity:1"
       id="circle4650"
       cx="278.97012"
       cy="704.22296"
       r="25" />
    <circle
       r="25"
       cy="662.22296"
       cx="158.97012"
       id="circle4652"
       style="fill:#b3b3b3;fill-opacity:1" />
    <circle
       style="fill:#b3b3b3;fill-opacity:1"
       id="circle4654"
       cx="78.970123"
       cy="734.22296"
       r="25" />
    <circle
       r="25"
       cy="1080.223"
       cx="78.970123"
       id="circle4656"
       style="fill:#b3b3b3;fill-opacity:1" />
    <circle
       style="fill:#b3b3b3;fill-opacity:1"
       id="circle4658"
       cx="418.97012"
       cy="1080.223"
       r="25" />
    <circle
       r="25"
       cy="1140.223"
       cx="298.97012"
       id="circle4660"
       style="fill:#b3b3b3;fill-opacity:1" />
    <circle
       style="fill:#b3b3b3;fill-opacity:1"
       id="circle4662"
       cx="678.97009"
       cy="660.22302"
       r="25" />
    <circle
       r="25"
       cy="1100.223"
       cx="718.97009"
       id="circle4664"
       style="fill:#b3b3b3;fill-opacity:1" />
    <path
       style="fill:none;fill-rule:evenodd;stroke:#b3b3b3;stroke-width:1px;stroke-linecap:butt;stroke-linejoin:miter;stroke-opacity:1"
       d="m 159.11255,687.22209 0.64334,112.9227"
       id="path4668"
       inkscape:connector-type="polyline"
       inkscape:connector-curvature="0"
       inkscape:connection-start="#circle4652"
       inkscape:connection-end="#circle4285" />
    <flowRoot
       transform="translate(691.6193,564.06612)"
       style="font-style:normal;font-weight:normal;font-size:50px;line-height:125%;font-family:sans-serif;text-align:center;letter-spacing:0px;word-spacing:0px;text-anchor:middle;fill:#000000;fill-opacity:1;stroke:none;stroke-width:1px;stroke-linecap:butt;stroke-linejoin:miter;stroke-opacity:1"
       id="flowRoot4684"
       xml:space="preserve"><flowRegion
         id="flowRegion4686"><rect
           style="font-size:50px;text-align:center;text-anchor:middle"
           y="635.16919"
           x="-642.45703"
           height="182.51566"
           width="383.66214"
           id="rect4688" /></flowRegion><flowPara
         id="flowPara4690">Gene </flowPara><flowPara
         id="flowPara4692">Set A</flowPara></flowRoot>    <flowRoot
       xml:space="preserve"
       id="flowRoot4694"
       style="font-style:normal;font-weight:normal;font-size:50px;line-height:125%;font-family:sans-serif;text-align:center;letter-spacing:0px;word-spacing:0px;text-anchor:middle;fill:#000000;fill-opacity:1;stroke:none;stroke-width:1px;stroke-linecap:butt;stroke-linejoin:miter;stroke-opacity:1"
       transform="translate(971.6193,564.06612)"><flowRegion
         id="flowRegion4696"><rect
           id="rect4698"
           width="383.66214"
           height="182.51566"
           x="-642.45703"
           y="635.16919"
           style="font-size:50px;text-align:center;text-anchor:middle" /></flowRegion><flowPara
         id="flowPara4700">Gene </flowPara><flowPara
         id="flowPara4702">Set B</flowPara></flowRoot>    <path
       style="fill:#b3b3b3;fill-opacity:1;fill-rule:evenodd;stroke:#b3b3b3;stroke-width:1px;stroke-linecap:butt;stroke-linejoin:miter;stroke-opacity:1"
       d="m 95.591541,752.89674 47.685359,53.5734"
       id="path4735"
       inkscape:connector-type="polyline"
       inkscape:connector-curvature="0"
       inkscape:connection-start="#circle4654"
       inkscape:connection-end="#circle4285" />
    <path
       style="fill:#b3b3b3;fill-opacity:1;fill-rule:evenodd;stroke:#b3b3b3;stroke-width:1px;stroke-linecap:butt;stroke-linejoin:miter;stroke-opacity:1"
       d="m 159.11255,687.22209 0.64334,112.9227"
       id="path4737"
       inkscape:connector-type="polyline"
       inkscape:connector-curvature="0"
       inkscape:connection-start="#circle4652"
       inkscape:connection-end="#circle4285" />
    <path
       style="fill:none;fill-rule:evenodd;stroke:#b3b3b3;stroke-width:1px;stroke-linecap:butt;stroke-linejoin:miter;stroke-opacity:1"
       d="M 255.3741,695.96435 182.56615,670.48157"
       id="path4739"
       inkscape:connector-type="polyline"
       inkscape:connector-curvature="0"
       inkscape:connection-start="#circle4650"
       inkscape:connection-end="#circle4652" />
    <path
       style="fill:none;fill-rule:evenodd;stroke:#000000;stroke-width:1px;stroke-linecap:butt;stroke-linejoin:miter;stroke-opacity:1"
       d="m 180.31947,886.88297 -12.57035,-38.0038"
       id="path4741"
       inkscape:connector-type="polyline"
       inkscape:connector-curvature="0"
       inkscape:connection-start="#circle4281"
       inkscape:connection-end="#circle4285" />
    <path
       style="fill:none;fill-rule:evenodd;stroke:#000000;stroke-width:1px;stroke-linecap:butt;stroke-linejoin:miter;stroke-opacity:1"
       d="m 163.18049,911.31943 -35.87107,1.00653"
       id="path4743"
       inkscape:connector-type="polyline"
       inkscape:connector-curvature="0"
       inkscape:connection-start="#circle4281"
       inkscape:connection-end="#circle4279" />
    <path
       style="fill:none;fill-rule:evenodd;stroke:#000000;stroke-width:1px;stroke-linecap:butt;stroke-linejoin:miter;stroke-opacity:1"
       d="m 241.15204,863.90135 -34.23039,30.18278"
       id="path4745"
       inkscape:connector-type="polyline"
       inkscape:connector-curvature="0"
       inkscape:connection-start="#circle4289"
       inkscape:connection-end="#circle4281" />
    <path
       style="fill:none;fill-rule:evenodd;stroke:#ff0000;stroke-width:1px;stroke-linecap:butt;stroke-linejoin:miter;stroke-opacity:1"
       d="m 206.28349,927.84926 59.75036,56.8403"
       id="path4747"
       inkscape:connector-type="polyline"
       inkscape:connector-curvature="0"
       inkscape:connection-start="#circle4281"
       inkscape:connection-end="#circle4287" />
    <path
       style="fill:none;fill-rule:evenodd;stroke:#000000;stroke-width:1px;stroke-linecap:butt;stroke-linejoin:miter;stroke-opacity:1"
       d="M 179.34901,934.00974 157.60789,991.6611"
       id="path4749"
       inkscape:connector-type="polyline"
       inkscape:connector-curvature="0"
       inkscape:connection-start="#circle4281"
       inkscape:connection-end="#circle4283" />
    <path
       style="fill:none;fill-rule:evenodd;stroke:#ff0000;stroke-width:1px;stroke-linecap:butt;stroke-linejoin:miter;stroke-opacity:1"
       d="M 212.61823,905.39472 327.37934,880.87506"
       id="path4751"
       inkscape:connector-type="polyline"
       inkscape:connector-curvature="0"
       inkscape:connection-start="#circle4281"
       inkscape:connection-end="#circle4293" />
    <path
       style="fill:none;fill-rule:evenodd;stroke:#ff0000;stroke-width:1px;stroke-linecap:butt;stroke-linejoin:miter;stroke-opacity:1"
       d="m 213.16989,910.55645 201.54106,-0.49798"
       id="path4753"
       inkscape:connector-type="polyline"
       inkscape:connector-curvature="0"
       inkscape:connection-start="#circle4281"
       inkscape:connection-end="#circle4305" />
    <path
       style="fill:none;fill-rule:evenodd;stroke:#ff0000;stroke-width:1px;stroke-linecap:butt;stroke-linejoin:miter;stroke-opacity:1"
       d="m 211.31697,920.06319 202.21645,82.51401"
       id="path4755"
       inkscape:connector-type="polyline"
       inkscape:connector-curvature="0"
       inkscape:connection-start="#circle4281"
       inkscape:connection-end="#circle4297" />
    <path
       style="fill:none;fill-rule:evenodd;stroke:#ff0000;stroke-width:1px;stroke-linecap:butt;stroke-linejoin:miter;stroke-opacity:1"
       d="m 416.42596,900.89698 -41.31404,-16.1457"
       id="path4757"
       inkscape:connector-type="polyline"
       inkscape:connector-curvature="0"
       inkscape:connection-start="#circle4305"
       inkscape:connection-end="#circle4293" />
    <path
       style="fill:none;fill-rule:evenodd;stroke:#ff0000;stroke-width:1px;stroke-linecap:butt;stroke-linejoin:miter;stroke-opacity:1"
       d="M 418.18781,922.7147 305.66982,989.2026"
       id="path4759"
       inkscape:connector-type="polyline"
       inkscape:connector-curvature="0"
       inkscape:connection-start="#circle4305"
       inkscape:connection-end="#circle4287" />
    <path
       style="fill:none;fill-rule:evenodd;stroke:#000000;stroke-width:1px;stroke-linecap:butt;stroke-linejoin:miter;stroke-opacity:1"
       d="m 443.67661,885.31333 11.2608,-70.08375"
       id="path4761"
       inkscape:connector-type="polyline"
       inkscape:connector-curvature="0"
       inkscape:connection-start="#circle4305"
       inkscape:connection-end="#circle4291" />
    <path
       style="fill:none;fill-rule:evenodd;stroke:#000000;stroke-width:1px;stroke-linecap:butt;stroke-linejoin:miter;stroke-opacity:1"
       d="m 464.67749,911.27709 28.85803,1.47994"
       id="path4763"
       inkscape:connector-type="polyline"
       inkscape:connector-curvature="0"
       inkscape:connection-start="#circle4305"
       inkscape:connection-end="#circle4295" />
    <path
       style="fill:none;fill-rule:evenodd;stroke:#000000;stroke-width:1px;stroke-linecap:butt;stroke-linejoin:miter;stroke-opacity:1"
       d="m 438.96834,934.98522 -1.54599,52.04848"
       id="path4765"
       inkscape:connector-type="polyline"
       inkscape:connector-curvature="0"
       inkscape:connection-start="#circle4305"
       inkscape:connection-end="#circle4297" />
    <path
       style="fill:none;fill-rule:evenodd;stroke:#000000;stroke-width:1px;stroke-linecap:butt;stroke-linejoin:miter;stroke-opacity:1"
       d="m 539.6338,927.39631 45.62058,28.84056"
       id="path4767"
       inkscape:connector-type="polyline"
       inkscape:connector-curvature="0"
       inkscape:connection-start="#circle4295"
       inkscape:connection-end="#circle4303" />
    <path
       style="fill:none;fill-rule:evenodd;stroke:#000000;stroke-width:1px;stroke-linecap:butt;stroke-linejoin:miter;stroke-opacity:1"
       d="m 540.37613,901.93256 60.2984,-33.36902"
       id="path4769"
       inkscape:connector-type="polyline"
       inkscape:connector-curvature="0"
       inkscape:connection-start="#circle4295"
       inkscape:connection-end="#circle4301" />
    <path
       style="fill:none;fill-rule:evenodd;stroke:#000000;stroke-width:1px;stroke-linecap:butt;stroke-linejoin:miter;stroke-opacity:1"
       d="M 618.93645,790.02327 534.23604,894.60985"
       id="path4771"
       inkscape:connector-type="polyline"
       inkscape:connector-curvature="0"
       inkscape:connection-start="#circle4299"
       inkscape:connection-end="#circle4295" />
    <path
       style="fill:#b3b3b3;fill-opacity:1;fill-rule:evenodd;stroke:#b3b3b3;stroke-width:1px;stroke-linecap:butt;stroke-linejoin:miter;stroke-opacity:1"
       d="M 669.65804,683.42382 643.9821,747.39491"
       id="path4773"
       inkscape:connector-type="polyline"
       inkscape:connector-curvature="0"
       inkscape:connection-start="#circle4662"
       inkscape:connection-end="#circle4299" />
    <path
       style="fill:#b3b3b3;fill-opacity:1;fill-rule:evenodd;stroke:#b3b3b3;stroke-width:1px;stroke-linecap:butt;stroke-linejoin:miter;stroke-opacity:1"
       d="M 177.43895,807.33089 261.42949,722.036"
       id="path4775"
       inkscape:connector-type="polyline"
       inkscape:connector-curvature="0"
       inkscape:connection-start="#circle4285"
       inkscape:connection-end="#circle4650" />
    <path
       style="fill:#b3b3b3;fill-opacity:1;fill-rule:evenodd;stroke:#b3b3b3;stroke-width:1px;stroke-linecap:butt;stroke-linejoin:miter;stroke-opacity:1"
       d="m 130.51155,1032.1115 -33.266352,31.0526"
       id="path4777"
       inkscape:connector-type="polyline"
       inkscape:connector-curvature="0"
       inkscape:connection-start="#circle4283"
       inkscape:connection-end="#circle4656" />
    <path
       style="fill:#b3b3b3;fill-opacity:1;fill-rule:evenodd;stroke:#b3b3b3;stroke-width:1px;stroke-linecap:butt;stroke-linejoin:miter;stroke-opacity:1"
       d="m 286.81123,1026.7778 9.49473,88.588"
       id="path4779"
       inkscape:connector-type="polyline"
       inkscape:connector-curvature="0"
       inkscape:connection-start="#circle4287"
       inkscape:connection-end="#circle4660" />
    <path
       style="fill:#b3b3b3;fill-opacity:1;fill-rule:evenodd;stroke:#b3b3b3;stroke-width:1px;stroke-linecap:butt;stroke-linejoin:miter;stroke-opacity:1"
       d="m 430.39675,1036.2193 -5.14326,19.8066"
       id="path4781"
       inkscape:connector-type="polyline"
       inkscape:connector-curvature="0"
       inkscape:connection-start="#circle4297"
       inkscape:connection-end="#circle4658" />
    <path
       style="fill:#b3b3b3;fill-opacity:1;fill-rule:evenodd;stroke:#b3b3b3;stroke-width:1px;stroke-linecap:butt;stroke-linejoin:miter;stroke-opacity:1"
       d="m 622.70708,988.53278 79.94167,92.75322"
       id="path4783"
       inkscape:connector-type="polyline"
       inkscape:connector-curvature="0"
       inkscape:connection-start="#circle4303"
       inkscape:connection-end="#circle4664" />
    <path
       style="fill:none;fill-rule:evenodd;stroke:#ff0000;stroke-width:1px;stroke-linecap:butt;stroke-linejoin:miter;stroke-opacity:1"
       d="M 439.33258,806.10135 371.39816,860.0964"
       id="path4785"
       inkscape:connector-type="polyline"
       inkscape:connector-curvature="0"
       inkscape:connection-start="#circle4291"
       inkscape:connection-end="#circle4293" />
    <path
       style="fill:none;fill-rule:evenodd;stroke:#ff0000;stroke-width:1px;stroke-linecap:butt;stroke-linejoin:miter;stroke-opacity:1"
       d="m 365.03462,896.8776 58.43818,93.91856"
       id="path4787"
       inkscape:connector-type="polyline"
       inkscape:connector-curvature="0"
       inkscape:connection-start="#circle4293"
       inkscape:connection-end="#circle4297" />
    <ellipse
       style="fill:none;fill-opacity:1;stroke:#eb811b;stroke-width:5;stroke-miterlimit:4;stroke-dasharray:none;stroke-opacity:1"
       id="path4237"
       ry="183.34268"
       rx="215.16249"
       cy="942.64392"
       cx="-485.97473" />
    <ellipse
       id="ellipse4239"
       style="fill:none;fill-opacity:1;stroke:#eb811b;stroke-width:5;stroke-miterlimit:4;stroke-dasharray:none;stroke-opacity:1"
       ry="215.66756"
       rx="270.72089"
       cy="894.64392"
       cx="-297.97476" />
    <ellipse
       cx="234.02524"
       cy="922.64392"
       rx="172.51201"
       ry="158.23245"
       id="ellipse4343"
       style="fill:none;fill-opacity:1;stroke:#eb811b;stroke-width:5;stroke-miterlimit:4;stroke-dasharray:none;stroke-opacity:1" />
    <ellipse
       cx="530.02527"
       cy="886.64392"
       rx="216.17265"
       ry="180.31221"
       style="fill:none;fill-opacity:1;stroke:#eb811b;stroke-width:5;stroke-miterlimit:4;stroke-dasharray:none;stroke-opacity:1"
       id="ellipse4345" />
    <circle
       style="fill:#23373b;fill-opacity:1"
       id="circle4154-9"
       cx="-110"
       cy="882.36218"
       r="25" />
    <circle
       style="fill:#23373b;fill-opacity:1"
       id="circle4154-1"
       cx="-238.57143"
       cy="1030.9336"
       r="25" />
    <circle
       style="fill:#23373b;fill-opacity:1"
       id="circle4154-8"
       cx="-252.85715"
       cy="786.64795"
       r="25" />
    <circle
       style="fill:#23373b;fill-opacity:1"
       id="circle4154-7"
       cx="-630"
       cy="913.79077"
       r="25" />
    <circle
       r="25"
       cy="642.36218"
       cx="-432.85715"
       id="circle4498-9"
       style="fill:#b3b3b3;fill-opacity:1" />
    <circle
       r="25"
       cy="655.21936"
       cx="-618.57141"
       id="circle4498-93"
       style="fill:#b3b3b3;fill-opacity:1" />
    <circle
       r="25"
       cy="1090.9336"
       cx="-91.428574"
       id="circle4498-3"
       style="fill:#b3b3b3;fill-opacity:1" />
    <circle
       r="25"
       cy="629.50507"
       cx="-98.571426"
       id="circle4498-32"
       style="fill:#b3b3b3;fill-opacity:1" />
    <circle
       r="25"
       cy="1113.7908"
       cx="-652.85712"
       id="circle4498-935"
       style="fill:#b3b3b3;fill-opacity:1" />
  </g>
</svg>
